-- Merging decision tree log ---
manifest
ADDED from C:\dev\flutter\.pub-cache\hosted\pub.dartlang.org\firebase_auth-0.11.1+6\android\src\main\AndroidManifest.xml:1:1-3:12
INJECTED from C:\dev\flutter\.pub-cache\hosted\pub.dartlang.org\firebase_auth-0.11.1+6\android\src\main\AndroidManifest.xml:1:1-3:12
INJECTED from C:\dev\flutter\.pub-cache\hosted\pub.dartlang.org\firebase_auth-0.11.1+6\android\src\main\AndroidManifest.xml:1:1-3:12
	package
		ADDED from C:\dev\flutter\.pub-cache\hosted\pub.dartlang.org\firebase_auth-0.11.1+6\android\src\main\AndroidManifest.xml:2:3-44
		INJECTED from C:\dev\flutter\.pub-cache\hosted\pub.dartlang.org\firebase_auth-0.11.1+6\android\src\main\AndroidManifest.xml
		INJECTED from C:\dev\flutter\.pub-cache\hosted\pub.dartlang.org\firebase_auth-0.11.1+6\android\src\main\AndroidManifest.xml
	xmlns:android
		ADDED from C:\dev\flutter\.pub-cache\hosted\pub.dartlang.org\firebase_auth-0.11.1+6\android\src\main\AndroidManifest.xml:1:11-69
uses-sdk
INJECTED from C:\dev\flutter\.pub-cache\hosted\pub.dartlang.org\firebase_auth-0.11.1+6\android\src\main\AndroidManifest.xml reason: use-sdk injection requested
INJECTED from C:\dev\flutter\.pub-cache\hosted\pub.dartlang.org\firebase_auth-0.11.1+6\android\src\main\AndroidManifest.xml
INJECTED from C:\dev\flutter\.pub-cache\hosted\pub.dartlang.org\firebase_auth-0.11.1+6\android\src\main\AndroidManifest.xml
	android:minSdkVersion
		INJECTED from C:\dev\flutter\.pub-cache\hosted\pub.dartlang.org\firebase_auth-0.11.1+6\android\src\main\AndroidManifest.xml
		ADDED from C:\dev\flutter\.pub-cache\hosted\pub.dartlang.org\firebase_auth-0.11.1+6\android\src\main\AndroidManifest.xml
		INJECTED from C:\dev\flutter\.pub-cache\hosted\pub.dartlang.org\firebase_auth-0.11.1+6\android\src\main\AndroidManifest.xml
