-- Merging decision tree log ---
manifest
ADDED from C:\dev\ines\android\app\src\main\AndroidManifest.xml:1:1-33:12
INJECTED from C:\dev\ines\android\app\src\main\AndroidManifest.xml:1:1-33:12
INJECTED from C:\dev\ines\android\app\src\main\AndroidManifest.xml:1:1-33:12
INJECTED from C:\dev\ines\android\app\src\main\AndroidManifest.xml:1:1-33:12
MERGED from C:\dev\ines\android\app\src\main\AndroidManifest.xml:1:1-33:12
MERGED from [androidx.multidex:multidex:2.0.0] C:\Users\utilizador\.gradle\caches\transforms-1\files-1.1\multidex-2.0.0.aar\6be5abd0afc381fa6189c8c27043c997\AndroidManifest.xml:17:1-22:12
MERGED from [:firebase_auth] C:\dev\ines\build\firebase_auth\intermediates\merged_manifests\debug\processDebugManifest\merged\AndroidManifest.xml:2:1-7:12
MERGED from [:cloud_firestore] C:\dev\ines\build\cloud_firestore\intermediates\merged_manifests\debug\processDebugManifest\merged\AndroidManifest.xml:2:1-15:12
MERGED from [:firebase_core] C:\dev\ines\build\firebase_core\intermediates\merged_manifests\debug\processDebugManifest\merged\AndroidManifest.xml:2:1-15:12
MERGED from [com.google.firebase:firebase-core:16.0.9] C:\Users\utilizador\.gradle\caches\transforms-1\files-1.1\firebase-core-16.0.9.aar\f118a51273b33ee4d2e1439a89c16844\AndroidManifest.xml:2:1-9:12
MERGED from [com.google.firebase:firebase-storage:17.0.0] C:\Users\utilizador\.gradle\caches\transforms-1\files-1.1\jetified-firebase-storage-17.0.0.aar\9c9b1989685d4eb2a7369b32437b262a\AndroidManifest.xml:15:1-37:12
MERGED from [com.google.firebase:firebase-auth:17.0.0] C:\Users\utilizador\.gradle\caches\transforms-1\files-1.1\jetified-firebase-auth-17.0.0.aar\6edc349d68958325d8dbbba1ebedbefe\AndroidManifest.xml:17:1-42:12
MERGED from [com.google.firebase:firebase-firestore:19.0.0] C:\Users\utilizador\.gradle\caches\transforms-1\files-1.1\jetified-firebase-firestore-19.0.0.aar\75c955ba9084858e12822a0f374bdc5c\AndroidManifest.xml:2:1-24:12
MERGED from [io.grpc:grpc-android:1.16.1] C:\Users\utilizador\.gradle\caches\transforms-1\files-1.1\grpc-android-1.16.1.aar\835e94b60738999054ea0c734f9e5f8a\AndroidManifest.xml:2:1-13:12
MERGED from [com.google.firebase:firebase-auth-interop:17.0.0] C:\Users\utilizador\.gradle\caches\transforms-1\files-1.1\jetified-firebase-auth-interop-17.0.0.aar\63d029edcf7eff616b7024b5a08b98d4\AndroidManifest.xml:2:1-10:12
MERGED from [com.google.firebase:firebase-analytics:16.5.0] C:\Users\utilizador\.gradle\caches\transforms-1\files-1.1\firebase-analytics-16.5.0.aar\96f876d5422faaee4fdb45ae2ac4478a\AndroidManifest.xml:2:1-9:12
MERGED from [com.google.android.gms:play-services-measurement-api:16.5.0] C:\Users\utilizador\.gradle\caches\transforms-1\files-1.1\jetified-play-services-measurement-api-16.5.0.aar\85a69f20b9c6a6513e8531692d89aba5\AndroidManifest.xml:17:1-36:12
MERGED from [com.google.firebase:firebase-iid:17.1.2] C:\Users\utilizador\.gradle\caches\transforms-1\files-1.1\jetified-firebase-iid-17.1.2.aar\c3462789492c9155fed319aa631485f7\AndroidManifest.xml:17:1-59:12
MERGED from [com.google.firebase:firebase-common:17.0.0] C:\Users\utilizador\.gradle\caches\transforms-1\files-1.1\jetified-firebase-common-17.0.0.aar\b7aad917b1ae87686ada99b298976fe1\AndroidManifest.xml:2:1-19:12
MERGED from [com.google.android.gms:play-services-flags:16.0.1] C:\Users\utilizador\.gradle\caches\transforms-1\files-1.1\play-services-flags-16.0.1.aar\1a428a3c289a64f602b8acffff65d401\AndroidManifest.xml:17:1-22:12
MERGED from [com.google.firebase:firebase-iid-interop:16.0.1] C:\Users\utilizador\.gradle\caches\transforms-1\files-1.1\jetified-firebase-iid-interop-16.0.1.aar\2de00a2ee1e33c5b137df94dd06ed48c\AndroidManifest.xml:2:1-10:12
MERGED from [com.google.android.gms:play-services-base:16.0.1] C:\Users\utilizador\.gradle\caches\transforms-1\files-1.1\jetified-play-services-base-16.0.1.aar\2bc13842ce595460e38ae80dd36a273c\AndroidManifest.xml:17:1-29:12
MERGED from [com.google.android.gms:play-services-tasks:16.0.1] C:\Users\utilizador\.gradle\caches\transforms-1\files-1.1\jetified-play-services-tasks-16.0.1.aar\3267ec4a608b25887bd474762ffb9bd1\AndroidManifest.xml:2:1-9:12
MERGED from [com.google.android.gms:play-services-measurement:16.5.0] C:\Users\utilizador\.gradle\caches\transforms-1\files-1.1\jetified-play-services-measurement-16.5.0.aar\f2a6bf63b4f39fdf7a2659563135bca4\AndroidManifest.xml:17:1-55:12
MERGED from [com.google.android.gms:play-services-measurement-sdk:16.5.0] C:\Users\utilizador\.gradle\caches\transforms-1\files-1.1\jetified-play-services-measurement-sdk-16.5.0.aar\1ad5ef7a20207a566f75a56661f122bb\AndroidManifest.xml:17:1-25:12
MERGED from [com.google.android.gms:play-services-measurement-impl:16.5.0] C:\Users\utilizador\.gradle\caches\transforms-1\files-1.1\jetified-play-services-measurement-impl-16.5.0.aar\4a7ecc81bef8b124da8ab31d16ee7420\AndroidManifest.xml:17:1-40:12
MERGED from [com.google.android.gms:play-services-measurement-sdk-api:16.5.0] C:\Users\utilizador\.gradle\caches\transforms-1\files-1.1\jetified-play-services-measurement-sdk-api-16.5.0.aar\14eafd50251a47c2155d9e2374fef149\AndroidManifest.xml:17:1-40:12
MERGED from [com.google.android.gms:play-services-measurement-base:16.5.0] C:\Users\utilizador\.gradle\caches\transforms-1\files-1.1\jetified-play-services-measurement-base-16.5.0.aar\f53079daa2efcd44dc9a55f22238073a\AndroidManifest.xml:2:1-9:12
MERGED from [com.google.android.gms:play-services-stats:16.0.1] C:\Users\utilizador\.gradle\caches\transforms-1\files-1.1\jetified-play-services-stats-16.0.1.aar\48fc3631c9b987c74f33ce28a10ad2f5\AndroidManifest.xml:2:1-9:12
MERGED from [com.google.firebase:firebase-measurement-connector:17.0.1] C:\Users\utilizador\.gradle\caches\transforms-1\files-1.1\jetified-firebase-measurement-connector-17.0.1.aar\3ec446b8d5e72dab4dddd9f2717db8ba\AndroidManifest.xml:17:1-25:12
MERGED from [com.google.android.gms:play-services-ads-identifier:16.0.0] C:\Users\utilizador\.gradle\caches\transforms-1\files-1.1\jetified-play-services-ads-identifier-16.0.0.aar\4c67735d396a4d007875b07b4dba7f6a\AndroidManifest.xml:17:1-24:12
MERGED from [com.google.android.gms:play-services-basement:16.2.0] C:\Users\utilizador\.gradle\caches\transforms-1\files-1.1\jetified-play-services-basement-16.2.0.aar\7441ade9eb49c9bce3c7047f58a435ef\AndroidManifest.xml:17:1-28:12
MERGED from [androidx.legacy:legacy-support-v4:1.0.0-rc01] C:\Users\utilizador\.gradle\caches\transforms-1\files-1.1\legacy-support-v4-1.0.0-rc01.aar\b7112ee61892430a3cfc23488d6531f9\AndroidManifest.xml:17:1-22:12
MERGED from [androidx.media:media:1.0.0-rc01] C:\Users\utilizador\.gradle\caches\transforms-1\files-1.1\media-1.0.0-rc01.aar\dbc7834e94ac21a7e20fd7c6cd6344e7\AndroidManifest.xml:17:1-22:12
MERGED from [androidx.fragment:fragment:1.0.0-rc01] C:\Users\utilizador\.gradle\caches\transforms-1\files-1.1\fragment-1.0.0-rc01.aar\ca93fae5b9ac124e43ec9b1c743e5493\AndroidManifest.xml:17:1-22:12
MERGED from [androidx.legacy:legacy-support-core-ui:1.0.0-rc01] C:\Users\utilizador\.gradle\caches\transforms-1\files-1.1\legacy-support-core-ui-1.0.0-rc01.aar\1b19a7da11eeb84d48e9ef527357a766\AndroidManifest.xml:17:1-22:12
MERGED from [androidx.legacy:legacy-support-core-utils:1.0.0-rc01] C:\Users\utilizador\.gradle\caches\transforms-1\files-1.1\legacy-support-core-utils-1.0.0-rc01.aar\efa60583927eec9d19f7ef6f789b266c\AndroidManifest.xml:17:1-22:12
MERGED from [androidx.loader:loader:1.0.0-rc01] C:\Users\utilizador\.gradle\caches\transforms-1\files-1.1\loader-1.0.0-rc01.aar\2c2f8081f401fa823a7480369022dedf\AndroidManifest.xml:17:1-22:12
MERGED from [androidx.viewpager:viewpager:1.0.0-rc01] C:\Users\utilizador\.gradle\caches\transforms-1\files-1.1\viewpager-1.0.0-rc01.aar\d422f67129aae651d58b7a8a3bdfeffa\AndroidManifest.xml:17:1-22:12
MERGED from [androidx.coordinatorlayout:coordinatorlayout:1.0.0-rc01] C:\Users\utilizador\.gradle\caches\transforms-1\files-1.1\coordinatorlayout-1.0.0-rc01.aar\61852b6c2c685e85fca4ded2b328e79e\AndroidManifest.xml:17:1-22:12
MERGED from [androidx.drawerlayout:drawerlayout:1.0.0-rc01] C:\Users\utilizador\.gradle\caches\transforms-1\files-1.1\drawerlayout-1.0.0-rc01.aar\ac3bf7c11e91ddbefe3bc63b2eb34453\AndroidManifest.xml:17:1-22:12
MERGED from [androidx.slidingpanelayout:slidingpanelayout:1.0.0-rc01] C:\Users\utilizador\.gradle\caches\transforms-1\files-1.1\slidingpanelayout-1.0.0-rc01.aar\6ca47075c3e5664ef2e6ffc474f31064\AndroidManifest.xml:17:1-22:12
MERGED from [androidx.customview:customview:1.0.0-rc01] C:\Users\utilizador\.gradle\caches\transforms-1\files-1.1\customview-1.0.0-rc01.aar\577a2c40503700adcf2afef0b05421e1\AndroidManifest.xml:17:1-22:12
MERGED from [androidx.swiperefreshlayout:swiperefreshlayout:1.0.0-rc01] C:\Users\utilizador\.gradle\caches\transforms-1\files-1.1\swiperefreshlayout-1.0.0-rc01.aar\2c51b01153c5f541fe66aad8d6accca8\AndroidManifest.xml:17:1-22:12
MERGED from [androidx.asynclayoutinflater:asynclayoutinflater:1.0.0-rc01] C:\Users\utilizador\.gradle\caches\transforms-1\files-1.1\asynclayoutinflater-1.0.0-rc01.aar\efa9fd601668676502c1c18be72ea8e8\AndroidManifest.xml:17:1-22:12
MERGED from [androidx.core:core:1.0.0-rc01] C:\Users\utilizador\.gradle\caches\transforms-1\files-1.1\core-1.0.0-rc01.aar\8c35ea8a65f1f90dbe9dd427717afaf5\AndroidManifest.xml:17:1-24:12
MERGED from [androidx.versionedparcelable:versionedparcelable:1.0.0-rc01] C:\Users\utilizador\.gradle\caches\transforms-1\files-1.1\versionedparcelable-1.0.0-rc01.aar\5dbe26922b821e9670d97e34d8c5c5f8\AndroidManifest.xml:17:1-25:12
MERGED from [androidx.documentfile:documentfile:1.0.0-rc01] C:\Users\utilizador\.gradle\caches\transforms-1\files-1.1\documentfile-1.0.0-rc01.aar\e6edc386819afadc062d1260149fca96\AndroidManifest.xml:17:1-22:12
MERGED from [androidx.localbroadcastmanager:localbroadcastmanager:1.0.0-rc01] C:\Users\utilizador\.gradle\caches\transforms-1\files-1.1\localbroadcastmanager-1.0.0-rc01.aar\58262651ea58f756262785450ed02e5a\AndroidManifest.xml:17:1-22:12
MERGED from [androidx.print:print:1.0.0-rc01] C:\Users\utilizador\.gradle\caches\transforms-1\files-1.1\print-1.0.0-rc01.aar\10b9e51d4d304d8af315e1427b2f13fe\AndroidManifest.xml:17:1-22:12
MERGED from [androidx.interpolator:interpolator:1.0.0-rc01] C:\Users\utilizador\.gradle\caches\transforms-1\files-1.1\interpolator-1.0.0-rc01.aar\647d5e56a3d2ee459ab96f12af6a94ee\AndroidManifest.xml:17:1-22:12
MERGED from [androidx.cursoradapter:cursoradapter:1.0.0-rc01] C:\Users\utilizador\.gradle\caches\transforms-1\files-1.1\cursoradapter-1.0.0-rc01.aar\d709bbb8d0d722cc993ff69237680ba7\AndroidManifest.xml:17:1-22:12
MERGED from [com.google.firebase:firebase-database-collection:16.0.1] C:\Users\utilizador\.gradle\caches\transforms-1\files-1.1\firebase-database-collection-16.0.1.aar\928503d7232bd027bdb72e9f7d83378c\AndroidManifest.xml:2:1-7:12
MERGED from [com.google.firebase:protolite-well-known-types:16.0.1] C:\Users\utilizador\.gradle\caches\transforms-1\files-1.1\protolite-well-known-types-16.0.1.aar\7470d35735c11326faeafeee841816b3\AndroidManifest.xml:2:1-11:12
MERGED from [androidx.lifecycle:lifecycle-runtime:2.0.0-rc01] C:\Users\utilizador\.gradle\caches\transforms-1\files-1.1\lifecycle-runtime-2.0.0-rc01.aar\5133b544a197fc9b1a92e9e5c1533cce\AndroidManifest.xml:17:1-22:12
MERGED from [androidx.lifecycle:lifecycle-viewmodel:2.0.0-rc01] C:\Users\utilizador\.gradle\caches\transforms-1\files-1.1\lifecycle-viewmodel-2.0.0-rc01.aar\88bd1e8449d728961d400ae08d977188\AndroidManifest.xml:17:1-22:12
MERGED from [androidx.lifecycle:lifecycle-livedata-core:2.0.0-rc01] C:\Users\utilizador\.gradle\caches\transforms-1\files-1.1\lifecycle-livedata-core-2.0.0-rc01.aar\fec700e26d0d0e4c8fc9332d80d9eaf5\AndroidManifest.xml:17:1-22:12
MERGED from [androidx.arch.core:core-runtime:2.0.0-rc01] C:\Users\utilizador\.gradle\caches\transforms-1\files-1.1\core-runtime-2.0.0-rc01.aar\3058a10b3c061c074f07d4e948fef81a\AndroidManifest.xml:17:1-22:12
INJECTED from C:\dev\ines\android\app\src\debug\AndroidManifest.xml:1:1-7:12
INJECTED from C:\dev\ines\android\app\src\debug\AndroidManifest.xml:1:1-7:12
INJECTED from C:\dev\ines\android\app\src\debug\AndroidManifest.xml:1:1-7:12
	package
		ADDED from C:\dev\ines\android\app\src\main\AndroidManifest.xml:2:5-32
		INJECTED from C:\dev\ines\android\app\src\main\AndroidManifest.xml
		INJECTED from C:\dev\ines\android\app\src\debug\AndroidManifest.xml
	android:versionName
		INJECTED from C:\dev\ines\android\app\src\main\AndroidManifest.xml
		ADDED from C:\dev\ines\android\app\src\main\AndroidManifest.xml:1:1-33:12
		INJECTED from C:\dev\ines\android\app\src\debug\AndroidManifest.xml
	android:versionCode
		INJECTED from C:\dev\ines\android\app\src\main\AndroidManifest.xml
		ADDED from C:\dev\ines\android\app\src\main\AndroidManifest.xml:1:1-33:12
		INJECTED from C:\dev\ines\android\app\src\debug\AndroidManifest.xml
	xmlns:android
		ADDED from C:\dev\ines\android\app\src\main\AndroidManifest.xml:1:11-69
application
ADDED from C:\dev\ines\android\app\src\main\AndroidManifest.xml:9:5-32:19
MERGED from [:cloud_firestore] C:\dev\ines\build\cloud_firestore\intermediates\merged_manifests\debug\processDebugManifest\merged\AndroidManifest.xml:7:5-13:19
MERGED from [:cloud_firestore] C:\dev\ines\build\cloud_firestore\intermediates\merged_manifests\debug\processDebugManifest\merged\AndroidManifest.xml:7:5-13:19
MERGED from [:firebase_core] C:\dev\ines\build\firebase_core\intermediates\merged_manifests\debug\processDebugManifest\merged\AndroidManifest.xml:7:5-13:19
MERGED from [:firebase_core] C:\dev\ines\build\firebase_core\intermediates\merged_manifests\debug\processDebugManifest\merged\AndroidManifest.xml:7:5-13:19
MERGED from [com.google.firebase:firebase-core:16.0.9] C:\Users\utilizador\.gradle\caches\transforms-1\files-1.1\firebase-core-16.0.9.aar\f118a51273b33ee4d2e1439a89c16844\AndroidManifest.xml:7:5-20
MERGED from [com.google.firebase:firebase-core:16.0.9] C:\Users\utilizador\.gradle\caches\transforms-1\files-1.1\firebase-core-16.0.9.aar\f118a51273b33ee4d2e1439a89c16844\AndroidManifest.xml:7:5-20
MERGED from [com.google.firebase:firebase-storage:17.0.0] C:\Users\utilizador\.gradle\caches\transforms-1\files-1.1\jetified-firebase-storage-17.0.0.aar\9c9b1989685d4eb2a7369b32437b262a\AndroidManifest.xml:29:5-35:19
MERGED from [com.google.firebase:firebase-storage:17.0.0] C:\Users\utilizador\.gradle\caches\transforms-1\files-1.1\jetified-firebase-storage-17.0.0.aar\9c9b1989685d4eb2a7369b32437b262a\AndroidManifest.xml:29:5-35:19
MERGED from [com.google.firebase:firebase-auth:17.0.0] C:\Users\utilizador\.gradle\caches\transforms-1\files-1.1\jetified-firebase-auth-17.0.0.aar\6edc349d68958325d8dbbba1ebedbefe\AndroidManifest.xml:23:5-40:19
MERGED from [com.google.firebase:firebase-auth:17.0.0] C:\Users\utilizador\.gradle\caches\transforms-1\files-1.1\jetified-firebase-auth-17.0.0.aar\6edc349d68958325d8dbbba1ebedbefe\AndroidManifest.xml:23:5-40:19
MERGED from [com.google.firebase:firebase-firestore:19.0.0] C:\Users\utilizador\.gradle\caches\transforms-1\files-1.1\jetified-firebase-firestore-19.0.0.aar\75c955ba9084858e12822a0f374bdc5c\AndroidManifest.xml:16:5-22:19
MERGED from [com.google.firebase:firebase-firestore:19.0.0] C:\Users\utilizador\.gradle\caches\transforms-1\files-1.1\jetified-firebase-firestore-19.0.0.aar\75c955ba9084858e12822a0f374bdc5c\AndroidManifest.xml:16:5-22:19
MERGED from [com.google.firebase:firebase-auth-interop:17.0.0] C:\Users\utilizador\.gradle\caches\transforms-1\files-1.1\jetified-firebase-auth-interop-17.0.0.aar\63d029edcf7eff616b7024b5a08b98d4\AndroidManifest.xml:7:5-8:19
MERGED from [com.google.firebase:firebase-auth-interop:17.0.0] C:\Users\utilizador\.gradle\caches\transforms-1\files-1.1\jetified-firebase-auth-interop-17.0.0.aar\63d029edcf7eff616b7024b5a08b98d4\AndroidManifest.xml:7:5-8:19
MERGED from [com.google.firebase:firebase-analytics:16.5.0] C:\Users\utilizador\.gradle\caches\transforms-1\files-1.1\firebase-analytics-16.5.0.aar\96f876d5422faaee4fdb45ae2ac4478a\AndroidManifest.xml:7:5-20
MERGED from [com.google.firebase:firebase-analytics:16.5.0] C:\Users\utilizador\.gradle\caches\transforms-1\files-1.1\firebase-analytics-16.5.0.aar\96f876d5422faaee4fdb45ae2ac4478a\AndroidManifest.xml:7:5-20
MERGED from [com.google.android.gms:play-services-measurement-api:16.5.0] C:\Users\utilizador\.gradle\caches\transforms-1\files-1.1\jetified-play-services-measurement-api-16.5.0.aar\85a69f20b9c6a6513e8531692d89aba5\AndroidManifest.xml:26:5-34:19
MERGED from [com.google.android.gms:play-services-measurement-api:16.5.0] C:\Users\utilizador\.gradle\caches\transforms-1\files-1.1\jetified-play-services-measurement-api-16.5.0.aar\85a69f20b9c6a6513e8531692d89aba5\AndroidManifest.xml:26:5-34:19
MERGED from [com.google.firebase:firebase-iid:17.1.2] C:\Users\utilizador\.gradle\caches\transforms-1\files-1.1\jetified-firebase-iid-17.1.2.aar\c3462789492c9155fed319aa631485f7\AndroidManifest.xml:28:5-57:19
MERGED from [com.google.firebase:firebase-iid:17.1.2] C:\Users\utilizador\.gradle\caches\transforms-1\files-1.1\jetified-firebase-iid-17.1.2.aar\c3462789492c9155fed319aa631485f7\AndroidManifest.xml:28:5-57:19
MERGED from [com.google.firebase:firebase-common:17.0.0] C:\Users\utilizador\.gradle\caches\transforms-1\files-1.1\jetified-firebase-common-17.0.0.aar\b7aad917b1ae87686ada99b298976fe1\AndroidManifest.xml:11:5-17:19
MERGED from [com.google.firebase:firebase-common:17.0.0] C:\Users\utilizador\.gradle\caches\transforms-1\files-1.1\jetified-firebase-common-17.0.0.aar\b7aad917b1ae87686ada99b298976fe1\AndroidManifest.xml:11:5-17:19
MERGED from [com.google.firebase:firebase-iid-interop:16.0.1] C:\Users\utilizador\.gradle\caches\transforms-1\files-1.1\jetified-firebase-iid-interop-16.0.1.aar\2de00a2ee1e33c5b137df94dd06ed48c\AndroidManifest.xml:7:5-8:19
MERGED from [com.google.firebase:firebase-iid-interop:16.0.1] C:\Users\utilizador\.gradle\caches\transforms-1\files-1.1\jetified-firebase-iid-interop-16.0.1.aar\2de00a2ee1e33c5b137df94dd06ed48c\AndroidManifest.xml:7:5-8:19
MERGED from [com.google.android.gms:play-services-base:16.0.1] C:\Users\utilizador\.gradle\caches\transforms-1\files-1.1\jetified-play-services-base-16.0.1.aar\2bc13842ce595460e38ae80dd36a273c\AndroidManifest.xml:22:5-27:19
MERGED from [com.google.android.gms:play-services-base:16.0.1] C:\Users\utilizador\.gradle\caches\transforms-1\files-1.1\jetified-play-services-base-16.0.1.aar\2bc13842ce595460e38ae80dd36a273c\AndroidManifest.xml:22:5-27:19
MERGED from [com.google.android.gms:play-services-tasks:16.0.1] C:\Users\utilizador\.gradle\caches\transforms-1\files-1.1\jetified-play-services-tasks-16.0.1.aar\3267ec4a608b25887bd474762ffb9bd1\AndroidManifest.xml:7:5-20
MERGED from [com.google.android.gms:play-services-tasks:16.0.1] C:\Users\utilizador\.gradle\caches\transforms-1\files-1.1\jetified-play-services-tasks-16.0.1.aar\3267ec4a608b25887bd474762ffb9bd1\AndroidManifest.xml:7:5-20
MERGED from [com.google.android.gms:play-services-measurement:16.5.0] C:\Users\utilizador\.gradle\caches\transforms-1\files-1.1\jetified-play-services-measurement-16.5.0.aar\f2a6bf63b4f39fdf7a2659563135bca4\AndroidManifest.xml:28:5-53:19
MERGED from [com.google.android.gms:play-services-measurement:16.5.0] C:\Users\utilizador\.gradle\caches\transforms-1\files-1.1\jetified-play-services-measurement-16.5.0.aar\f2a6bf63b4f39fdf7a2659563135bca4\AndroidManifest.xml:28:5-53:19
MERGED from [com.google.android.gms:play-services-measurement-sdk:16.5.0] C:\Users\utilizador\.gradle\caches\transforms-1\files-1.1\jetified-play-services-measurement-sdk-16.5.0.aar\1ad5ef7a20207a566f75a56661f122bb\AndroidManifest.xml:22:5-23:19
MERGED from [com.google.android.gms:play-services-measurement-sdk:16.5.0] C:\Users\utilizador\.gradle\caches\transforms-1\files-1.1\jetified-play-services-measurement-sdk-16.5.0.aar\1ad5ef7a20207a566f75a56661f122bb\AndroidManifest.xml:22:5-23:19
MERGED from [com.google.android.gms:play-services-measurement-impl:16.5.0] C:\Users\utilizador\.gradle\caches\transforms-1\files-1.1\jetified-play-services-measurement-impl-16.5.0.aar\4a7ecc81bef8b124da8ab31d16ee7420\AndroidManifest.xml:28:5-38:19
MERGED from [com.google.android.gms:play-services-measurement-impl:16.5.0] C:\Users\utilizador\.gradle\caches\transforms-1\files-1.1\jetified-play-services-measurement-impl-16.5.0.aar\4a7ecc81bef8b124da8ab31d16ee7420\AndroidManifest.xml:28:5-38:19
MERGED from [com.google.android.gms:play-services-measurement-sdk-api:16.5.0] C:\Users\utilizador\.gradle\caches\transforms-1\files-1.1\jetified-play-services-measurement-sdk-api-16.5.0.aar\14eafd50251a47c2155d9e2374fef149\AndroidManifest.xml:28:5-38:19
MERGED from [com.google.android.gms:play-services-measurement-sdk-api:16.5.0] C:\Users\utilizador\.gradle\caches\transforms-1\files-1.1\jetified-play-services-measurement-sdk-api-16.5.0.aar\14eafd50251a47c2155d9e2374fef149\AndroidManifest.xml:28:5-38:19
MERGED from [com.google.android.gms:play-services-measurement-base:16.5.0] C:\Users\utilizador\.gradle\caches\transforms-1\files-1.1\jetified-play-services-measurement-base-16.5.0.aar\f53079daa2efcd44dc9a55f22238073a\AndroidManifest.xml:7:5-20
MERGED from [com.google.android.gms:play-services-measurement-base:16.5.0] C:\Users\utilizador\.gradle\caches\transforms-1\files-1.1\jetified-play-services-measurement-base-16.5.0.aar\f53079daa2efcd44dc9a55f22238073a\AndroidManifest.xml:7:5-20
MERGED from [com.google.android.gms:play-services-stats:16.0.1] C:\Users\utilizador\.gradle\caches\transforms-1\files-1.1\jetified-play-services-stats-16.0.1.aar\48fc3631c9b987c74f33ce28a10ad2f5\AndroidManifest.xml:7:5-20
MERGED from [com.google.android.gms:play-services-stats:16.0.1] C:\Users\utilizador\.gradle\caches\transforms-1\files-1.1\jetified-play-services-stats-16.0.1.aar\48fc3631c9b987c74f33ce28a10ad2f5\AndroidManifest.xml:7:5-20
MERGED from [com.google.firebase:firebase-measurement-connector:17.0.1] C:\Users\utilizador\.gradle\caches\transforms-1\files-1.1\jetified-firebase-measurement-connector-17.0.1.aar\3ec446b8d5e72dab4dddd9f2717db8ba\AndroidManifest.xml:22:5-23:19
MERGED from [com.google.firebase:firebase-measurement-connector:17.0.1] C:\Users\utilizador\.gradle\caches\transforms-1\files-1.1\jetified-firebase-measurement-connector-17.0.1.aar\3ec446b8d5e72dab4dddd9f2717db8ba\AndroidManifest.xml:22:5-23:19
MERGED from [com.google.android.gms:play-services-ads-identifier:16.0.0] C:\Users\utilizador\.gradle\caches\transforms-1\files-1.1\jetified-play-services-ads-identifier-16.0.0.aar\4c67735d396a4d007875b07b4dba7f6a\AndroidManifest.xml:22:5-20
MERGED from [com.google.android.gms:play-services-ads-identifier:16.0.0] C:\Users\utilizador\.gradle\caches\transforms-1\files-1.1\jetified-play-services-ads-identifier-16.0.0.aar\4c67735d396a4d007875b07b4dba7f6a\AndroidManifest.xml:22:5-20
MERGED from [com.google.android.gms:play-services-basement:16.2.0] C:\Users\utilizador\.gradle\caches\transforms-1\files-1.1\jetified-play-services-basement-16.2.0.aar\7441ade9eb49c9bce3c7047f58a435ef\AndroidManifest.xml:22:5-26:19
MERGED from [com.google.android.gms:play-services-basement:16.2.0] C:\Users\utilizador\.gradle\caches\transforms-1\files-1.1\jetified-play-services-basement-16.2.0.aar\7441ade9eb49c9bce3c7047f58a435ef\AndroidManifest.xml:22:5-26:19
MERGED from [androidx.core:core:1.0.0-rc01] C:\Users\utilizador\.gradle\caches\transforms-1\files-1.1\core-1.0.0-rc01.aar\8c35ea8a65f1f90dbe9dd427717afaf5\AndroidManifest.xml:22:5-89
MERGED from [androidx.core:core:1.0.0-rc01] C:\Users\utilizador\.gradle\caches\transforms-1\files-1.1\core-1.0.0-rc01.aar\8c35ea8a65f1f90dbe9dd427717afaf5\AndroidManifest.xml:22:5-89
MERGED from [androidx.versionedparcelable:versionedparcelable:1.0.0-rc01] C:\Users\utilizador\.gradle\caches\transforms-1\files-1.1\versionedparcelable-1.0.0-rc01.aar\5dbe26922b821e9670d97e34d8c5c5f8\AndroidManifest.xml:22:5-23:19
MERGED from [androidx.versionedparcelable:versionedparcelable:1.0.0-rc01] C:\Users\utilizador\.gradle\caches\transforms-1\files-1.1\versionedparcelable-1.0.0-rc01.aar\5dbe26922b821e9670d97e34d8c5c5f8\AndroidManifest.xml:22:5-23:19
	android:appComponentFactory
		ADDED from [androidx.core:core:1.0.0-rc01] C:\Users\utilizador\.gradle\caches\transforms-1\files-1.1\core-1.0.0-rc01.aar\8c35ea8a65f1f90dbe9dd427717afaf5\AndroidManifest.xml:22:18-86
	android:label
		ADDED from C:\dev\ines\android\app\src\main\AndroidManifest.xml:11:9-30
	android:icon
		ADDED from C:\dev\ines\android\app\src\main\AndroidManifest.xml:12:9-43
	android:name
		ADDED from C:\dev\ines\android\app\src\main\AndroidManifest.xml:10:9-57
activity#com.example.myyda.MainActivity
ADDED from C:\dev\ines\android\app\src\main\AndroidManifest.xml:13:9-31:20
	android:launchMode
		ADDED from C:\dev\ines\android\app\src\main\AndroidManifest.xml:15:13-43
	android:hardwareAccelerated
		ADDED from C:\dev\ines\android\app\src\main\AndroidManifest.xml:18:13-47
	android:windowSoftInputMode
		ADDED from C:\dev\ines\android\app\src\main\AndroidManifest.xml:19:13-55
	android:configChanges
		ADDED from C:\dev\ines\android\app\src\main\AndroidManifest.xml:17:13-144
	android:theme
		ADDED from C:\dev\ines\android\app\src\main\AndroidManifest.xml:16:13-47
	android:name
		ADDED from C:\dev\ines\android\app\src\main\AndroidManifest.xml:14:13-41
meta-data#io.flutter.app.android.SplashScreenUntilFirstFrame
ADDED from C:\dev\ines\android\app\src\main\AndroidManifest.xml:24:13-26:40
	android:value
		ADDED from C:\dev\ines\android\app\src\main\AndroidManifest.xml:26:17-37
	android:name
		ADDED from C:\dev\ines\android\app\src\main\AndroidManifest.xml:25:17-82
intent-filter#action:name:android.intent.action.MAIN+category:name:android.intent.category.LAUNCHER
ADDED from C:\dev\ines\android\app\src\main\AndroidManifest.xml:27:13-30:29
action#android.intent.action.MAIN
ADDED from C:\dev\ines\android\app\src\main\AndroidManifest.xml:28:17-68
	android:name
		ADDED from C:\dev\ines\android\app\src\main\AndroidManifest.xml:28:25-66
category#android.intent.category.LAUNCHER
ADDED from C:\dev\ines\android\app\src\main\AndroidManifest.xml:29:17-76
	android:name
		ADDED from C:\dev\ines\android\app\src\main\AndroidManifest.xml:29:27-74
uses-sdk
INJECTED from C:\dev\ines\android\app\src\main\AndroidManifest.xml reason: use-sdk injection requested
INJECTED from C:\dev\ines\android\app\src\main\AndroidManifest.xml
INJECTED from C:\dev\ines\android\app\src\main\AndroidManifest.xml
MERGED from [androidx.multidex:multidex:2.0.0] C:\Users\utilizador\.gradle\caches\transforms-1\files-1.1\multidex-2.0.0.aar\6be5abd0afc381fa6189c8c27043c997\AndroidManifest.xml:20:5-43
MERGED from [androidx.multidex:multidex:2.0.0] C:\Users\utilizador\.gradle\caches\transforms-1\files-1.1\multidex-2.0.0.aar\6be5abd0afc381fa6189c8c27043c997\AndroidManifest.xml:20:5-43
MERGED from [:firebase_auth] C:\dev\ines\build\firebase_auth\intermediates\merged_manifests\debug\processDebugManifest\merged\AndroidManifest.xml:5:5-44
MERGED from [:firebase_auth] C:\dev\ines\build\firebase_auth\intermediates\merged_manifests\debug\processDebugManifest\merged\AndroidManifest.xml:5:5-44
MERGED from [:cloud_firestore] C:\dev\ines\build\cloud_firestore\intermediates\merged_manifests\debug\processDebugManifest\merged\AndroidManifest.xml:5:5-44
MERGED from [:cloud_firestore] C:\dev\ines\build\cloud_firestore\intermediates\merged_manifests\debug\processDebugManifest\merged\AndroidManifest.xml:5:5-44
MERGED from [:firebase_core] C:\dev\ines\build\firebase_core\intermediates\merged_manifests\debug\processDebugManifest\merged\AndroidManifest.xml:5:5-44
MERGED from [:firebase_core] C:\dev\ines\build\firebase_core\intermediates\merged_manifests\debug\processDebugManifest\merged\AndroidManifest.xml:5:5-44
MERGED from [com.google.firebase:firebase-core:16.0.9] C:\Users\utilizador\.gradle\caches\transforms-1\files-1.1\firebase-core-16.0.9.aar\f118a51273b33ee4d2e1439a89c16844\AndroidManifest.xml:5:5-44
MERGED from [com.google.firebase:firebase-core:16.0.9] C:\Users\utilizador\.gradle\caches\transforms-1\files-1.1\firebase-core-16.0.9.aar\f118a51273b33ee4d2e1439a89c16844\AndroidManifest.xml:5:5-44
MERGED from [com.google.firebase:firebase-storage:17.0.0] C:\Users\utilizador\.gradle\caches\transforms-1\files-1.1\jetified-firebase-storage-17.0.0.aar\9c9b1989685d4eb2a7369b32437b262a\AndroidManifest.xml:20:5-22:41
MERGED from [com.google.firebase:firebase-storage:17.0.0] C:\Users\utilizador\.gradle\caches\transforms-1\files-1.1\jetified-firebase-storage-17.0.0.aar\9c9b1989685d4eb2a7369b32437b262a\AndroidManifest.xml:20:5-22:41
MERGED from [com.google.firebase:firebase-auth:17.0.0] C:\Users\utilizador\.gradle\caches\transforms-1\files-1.1\jetified-firebase-auth-17.0.0.aar\6edc349d68958325d8dbbba1ebedbefe\AndroidManifest.xml:21:5-44
MERGED from [com.google.firebase:firebase-auth:17.0.0] C:\Users\utilizador\.gradle\caches\transforms-1\files-1.1\jetified-firebase-auth-17.0.0.aar\6edc349d68958325d8dbbba1ebedbefe\AndroidManifest.xml:21:5-44
MERGED from [com.google.firebase:firebase-firestore:19.0.0] C:\Users\utilizador\.gradle\caches\transforms-1\files-1.1\jetified-firebase-firestore-19.0.0.aar\75c955ba9084858e12822a0f374bdc5c\AndroidManifest.xml:7:5-9:41
MERGED from [com.google.firebase:firebase-firestore:19.0.0] C:\Users\utilizador\.gradle\caches\transforms-1\files-1.1\jetified-firebase-firestore-19.0.0.aar\75c955ba9084858e12822a0f374bdc5c\AndroidManifest.xml:7:5-9:41
MERGED from [io.grpc:grpc-android:1.16.1] C:\Users\utilizador\.gradle\caches\transforms-1\files-1.1\grpc-android-1.16.1.aar\835e94b60738999054ea0c734f9e5f8a\AndroidManifest.xml:7:5-9:41
MERGED from [io.grpc:grpc-android:1.16.1] C:\Users\utilizador\.gradle\caches\transforms-1\files-1.1\grpc-android-1.16.1.aar\835e94b60738999054ea0c734f9e5f8a\AndroidManifest.xml:7:5-9:41
MERGED from [com.google.firebase:firebase-auth-interop:17.0.0] C:\Users\utilizador\.gradle\caches\transforms-1\files-1.1\jetified-firebase-auth-interop-17.0.0.aar\63d029edcf7eff616b7024b5a08b98d4\AndroidManifest.xml:5:5-44
MERGED from [com.google.firebase:firebase-auth-interop:17.0.0] C:\Users\utilizador\.gradle\caches\transforms-1\files-1.1\jetified-firebase-auth-interop-17.0.0.aar\63d029edcf7eff616b7024b5a08b98d4\AndroidManifest.xml:5:5-44
MERGED from [com.google.firebase:firebase-analytics:16.5.0] C:\Users\utilizador\.gradle\caches\transforms-1\files-1.1\firebase-analytics-16.5.0.aar\96f876d5422faaee4fdb45ae2ac4478a\AndroidManifest.xml:5:5-44
MERGED from [com.google.firebase:firebase-analytics:16.5.0] C:\Users\utilizador\.gradle\caches\transforms-1\files-1.1\firebase-analytics-16.5.0.aar\96f876d5422faaee4fdb45ae2ac4478a\AndroidManifest.xml:5:5-44
MERGED from [com.google.android.gms:play-services-measurement-api:16.5.0] C:\Users\utilizador\.gradle\caches\transforms-1\files-1.1\jetified-play-services-measurement-api-16.5.0.aar\85a69f20b9c6a6513e8531692d89aba5\AndroidManifest.xml:20:5-44
MERGED from [com.google.android.gms:play-services-measurement-api:16.5.0] C:\Users\utilizador\.gradle\caches\transforms-1\files-1.1\jetified-play-services-measurement-api-16.5.0.aar\85a69f20b9c6a6513e8531692d89aba5\AndroidManifest.xml:20:5-44
MERGED from [com.google.firebase:firebase-iid:17.1.2] C:\Users\utilizador\.gradle\caches\transforms-1\files-1.1\jetified-firebase-iid-17.1.2.aar\c3462789492c9155fed319aa631485f7\AndroidManifest.xml:20:5-44
MERGED from [com.google.firebase:firebase-iid:17.1.2] C:\Users\utilizador\.gradle\caches\transforms-1\files-1.1\jetified-firebase-iid-17.1.2.aar\c3462789492c9155fed319aa631485f7\AndroidManifest.xml:20:5-44
MERGED from [com.google.firebase:firebase-common:17.0.0] C:\Users\utilizador\.gradle\caches\transforms-1\files-1.1\jetified-firebase-common-17.0.0.aar\b7aad917b1ae87686ada99b298976fe1\AndroidManifest.xml:6:5-8:41
MERGED from [com.google.firebase:firebase-common:17.0.0] C:\Users\utilizador\.gradle\caches\transforms-1\files-1.1\jetified-firebase-common-17.0.0.aar\b7aad917b1ae87686ada99b298976fe1\AndroidManifest.xml:6:5-8:41
MERGED from [com.google.android.gms:play-services-flags:16.0.1] C:\Users\utilizador\.gradle\caches\transforms-1\files-1.1\play-services-flags-16.0.1.aar\1a428a3c289a64f602b8acffff65d401\AndroidManifest.xml:20:5-44
MERGED from [com.google.android.gms:play-services-flags:16.0.1] C:\Users\utilizador\.gradle\caches\transforms-1\files-1.1\play-services-flags-16.0.1.aar\1a428a3c289a64f602b8acffff65d401\AndroidManifest.xml:20:5-44
MERGED from [com.google.firebase:firebase-iid-interop:16.0.1] C:\Users\utilizador\.gradle\caches\transforms-1\files-1.1\jetified-firebase-iid-interop-16.0.1.aar\2de00a2ee1e33c5b137df94dd06ed48c\AndroidManifest.xml:5:5-44
MERGED from [com.google.firebase:firebase-iid-interop:16.0.1] C:\Users\utilizador\.gradle\caches\transforms-1\files-1.1\jetified-firebase-iid-interop-16.0.1.aar\2de00a2ee1e33c5b137df94dd06ed48c\AndroidManifest.xml:5:5-44
MERGED from [com.google.android.gms:play-services-base:16.0.1] C:\Users\utilizador\.gradle\caches\transforms-1\files-1.1\jetified-play-services-base-16.0.1.aar\2bc13842ce595460e38ae80dd36a273c\AndroidManifest.xml:20:5-44
MERGED from [com.google.android.gms:play-services-base:16.0.1] C:\Users\utilizador\.gradle\caches\transforms-1\files-1.1\jetified-play-services-base-16.0.1.aar\2bc13842ce595460e38ae80dd36a273c\AndroidManifest.xml:20:5-44
MERGED from [com.google.android.gms:play-services-tasks:16.0.1] C:\Users\utilizador\.gradle\caches\transforms-1\files-1.1\jetified-play-services-tasks-16.0.1.aar\3267ec4a608b25887bd474762ffb9bd1\AndroidManifest.xml:5:5-44
MERGED from [com.google.android.gms:play-services-tasks:16.0.1] C:\Users\utilizador\.gradle\caches\transforms-1\files-1.1\jetified-play-services-tasks-16.0.1.aar\3267ec4a608b25887bd474762ffb9bd1\AndroidManifest.xml:5:5-44
MERGED from [com.google.android.gms:play-services-measurement:16.5.0] C:\Users\utilizador\.gradle\caches\transforms-1\files-1.1\jetified-play-services-measurement-16.5.0.aar\f2a6bf63b4f39fdf7a2659563135bca4\AndroidManifest.xml:20:5-44
MERGED from [com.google.android.gms:play-services-measurement:16.5.0] C:\Users\utilizador\.gradle\caches\transforms-1\files-1.1\jetified-play-services-measurement-16.5.0.aar\f2a6bf63b4f39fdf7a2659563135bca4\AndroidManifest.xml:20:5-44
MERGED from [com.google.android.gms:play-services-measurement-sdk:16.5.0] C:\Users\utilizador\.gradle\caches\transforms-1\files-1.1\jetified-play-services-measurement-sdk-16.5.0.aar\1ad5ef7a20207a566f75a56661f122bb\AndroidManifest.xml:20:5-44
MERGED from [com.google.android.gms:play-services-measurement-sdk:16.5.0] C:\Users\utilizador\.gradle\caches\transforms-1\files-1.1\jetified-play-services-measurement-sdk-16.5.0.aar\1ad5ef7a20207a566f75a56661f122bb\AndroidManifest.xml:20:5-44
MERGED from [com.google.android.gms:play-services-measurement-impl:16.5.0] C:\Users\utilizador\.gradle\caches\transforms-1\files-1.1\jetified-play-services-measurement-impl-16.5.0.aar\4a7ecc81bef8b124da8ab31d16ee7420\AndroidManifest.xml:20:5-44
MERGED from [com.google.android.gms:play-services-measurement-impl:16.5.0] C:\Users\utilizador\.gradle\caches\transforms-1\files-1.1\jetified-play-services-measurement-impl-16.5.0.aar\4a7ecc81bef8b124da8ab31d16ee7420\AndroidManifest.xml:20:5-44
MERGED from [com.google.android.gms:play-services-measurement-sdk-api:16.5.0] C:\Users\utilizador\.gradle\caches\transforms-1\files-1.1\jetified-play-services-measurement-sdk-api-16.5.0.aar\14eafd50251a47c2155d9e2374fef149\AndroidManifest.xml:20:5-44
MERGED from [com.google.android.gms:play-services-measurement-sdk-api:16.5.0] C:\Users\utilizador\.gradle\caches\transforms-1\files-1.1\jetified-play-services-measurement-sdk-api-16.5.0.aar\14eafd50251a47c2155d9e2374fef149\AndroidManifest.xml:20:5-44
MERGED from [com.google.android.gms:play-services-measurement-base:16.5.0] C:\Users\utilizador\.gradle\caches\transforms-1\files-1.1\jetified-play-services-measurement-base-16.5.0.aar\f53079daa2efcd44dc9a55f22238073a\AndroidManifest.xml:5:5-44
MERGED from [com.google.android.gms:play-services-measurement-base:16.5.0] C:\Users\utilizador\.gradle\caches\transforms-1\files-1.1\jetified-play-services-measurement-base-16.5.0.aar\f53079daa2efcd44dc9a55f22238073a\AndroidManifest.xml:5:5-44
MERGED from [com.google.android.gms:play-services-stats:16.0.1] C:\Users\utilizador\.gradle\caches\transforms-1\files-1.1\jetified-play-services-stats-16.0.1.aar\48fc3631c9b987c74f33ce28a10ad2f5\AndroidManifest.xml:5:5-44
MERGED from [com.google.android.gms:play-services-stats:16.0.1] C:\Users\utilizador\.gradle\caches\transforms-1\files-1.1\jetified-play-services-stats-16.0.1.aar\48fc3631c9b987c74f33ce28a10ad2f5\AndroidManifest.xml:5:5-44
MERGED from [com.google.firebase:firebase-measurement-connector:17.0.1] C:\Users\utilizador\.gradle\caches\transforms-1\files-1.1\jetified-firebase-measurement-connector-17.0.1.aar\3ec446b8d5e72dab4dddd9f2717db8ba\AndroidManifest.xml:20:5-44
MERGED from [com.google.firebase:firebase-measurement-connector:17.0.1] C:\Users\utilizador\.gradle\caches\transforms-1\files-1.1\jetified-firebase-measurement-connector-17.0.1.aar\3ec446b8d5e72dab4dddd9f2717db8ba\AndroidManifest.xml:20:5-44
MERGED from [com.google.android.gms:play-services-ads-identifier:16.0.0] C:\Users\utilizador\.gradle\caches\transforms-1\files-1.1\jetified-play-services-ads-identifier-16.0.0.aar\4c67735d396a4d007875b07b4dba7f6a\AndroidManifest.xml:20:5-44
MERGED from [com.google.android.gms:play-services-ads-identifier:16.0.0] C:\Users\utilizador\.gradle\caches\transforms-1\files-1.1\jetified-play-services-ads-identifier-16.0.0.aar\4c67735d396a4d007875b07b4dba7f6a\AndroidManifest.xml:20:5-44
MERGED from [com.google.android.gms:play-services-basement:16.2.0] C:\Users\utilizador\.gradle\caches\transforms-1\files-1.1\jetified-play-services-basement-16.2.0.aar\7441ade9eb49c9bce3c7047f58a435ef\AndroidManifest.xml:20:5-44
MERGED from [com.google.android.gms:play-services-basement:16.2.0] C:\Users\utilizador\.gradle\caches\transforms-1\files-1.1\jetified-play-services-basement-16.2.0.aar\7441ade9eb49c9bce3c7047f58a435ef\AndroidManifest.xml:20:5-44
MERGED from [androidx.legacy:legacy-support-v4:1.0.0-rc01] C:\Users\utilizador\.gradle\caches\transforms-1\files-1.1\legacy-support-v4-1.0.0-rc01.aar\b7112ee61892430a3cfc23488d6531f9\AndroidManifest.xml:20:5-44
MERGED from [androidx.legacy:legacy-support-v4:1.0.0-rc01] C:\Users\utilizador\.gradle\caches\transforms-1\files-1.1\legacy-support-v4-1.0.0-rc01.aar\b7112ee61892430a3cfc23488d6531f9\AndroidManifest.xml:20:5-44
MERGED from [androidx.media:media:1.0.0-rc01] C:\Users\utilizador\.gradle\caches\transforms-1\files-1.1\media-1.0.0-rc01.aar\dbc7834e94ac21a7e20fd7c6cd6344e7\AndroidManifest.xml:20:5-44
MERGED from [androidx.media:media:1.0.0-rc01] C:\Users\utilizador\.gradle\caches\transforms-1\files-1.1\media-1.0.0-rc01.aar\dbc7834e94ac21a7e20fd7c6cd6344e7\AndroidManifest.xml:20:5-44
MERGED from [androidx.fragment:fragment:1.0.0-rc01] C:\Users\utilizador\.gradle\caches\transforms-1\files-1.1\fragment-1.0.0-rc01.aar\ca93fae5b9ac124e43ec9b1c743e5493\AndroidManifest.xml:20:5-44
MERGED from [androidx.fragment:fragment:1.0.0-rc01] C:\Users\utilizador\.gradle\caches\transforms-1\files-1.1\fragment-1.0.0-rc01.aar\ca93fae5b9ac124e43ec9b1c743e5493\AndroidManifest.xml:20:5-44
MERGED from [androidx.legacy:legacy-support-core-ui:1.0.0-rc01] C:\Users\utilizador\.gradle\caches\transforms-1\files-1.1\legacy-support-core-ui-1.0.0-rc01.aar\1b19a7da11eeb84d48e9ef527357a766\AndroidManifest.xml:20:5-44
MERGED from [androidx.legacy:legacy-support-core-ui:1.0.0-rc01] C:\Users\utilizador\.gradle\caches\transforms-1\files-1.1\legacy-support-core-ui-1.0.0-rc01.aar\1b19a7da11eeb84d48e9ef527357a766\AndroidManifest.xml:20:5-44
MERGED from [androidx.legacy:legacy-support-core-utils:1.0.0-rc01] C:\Users\utilizador\.gradle\caches\transforms-1\files-1.1\legacy-support-core-utils-1.0.0-rc01.aar\efa60583927eec9d19f7ef6f789b266c\AndroidManifest.xml:20:5-44
MERGED from [androidx.legacy:legacy-support-core-utils:1.0.0-rc01] C:\Users\utilizador\.gradle\caches\transforms-1\files-1.1\legacy-support-core-utils-1.0.0-rc01.aar\efa60583927eec9d19f7ef6f789b266c\AndroidManifest.xml:20:5-44
MERGED from [androidx.loader:loader:1.0.0-rc01] C:\Users\utilizador\.gradle\caches\transforms-1\files-1.1\loader-1.0.0-rc01.aar\2c2f8081f401fa823a7480369022dedf\AndroidManifest.xml:20:5-44
MERGED from [androidx.loader:loader:1.0.0-rc01] C:\Users\utilizador\.gradle\caches\transforms-1\files-1.1\loader-1.0.0-rc01.aar\2c2f8081f401fa823a7480369022dedf\AndroidManifest.xml:20:5-44
MERGED from [androidx.viewpager:viewpager:1.0.0-rc01] C:\Users\utilizador\.gradle\caches\transforms-1\files-1.1\viewpager-1.0.0-rc01.aar\d422f67129aae651d58b7a8a3bdfeffa\AndroidManifest.xml:20:5-44
MERGED from [androidx.viewpager:viewpager:1.0.0-rc01] C:\Users\utilizador\.gradle\caches\transforms-1\files-1.1\viewpager-1.0.0-rc01.aar\d422f67129aae651d58b7a8a3bdfeffa\AndroidManifest.xml:20:5-44
MERGED from [androidx.coordinatorlayout:coordinatorlayout:1.0.0-rc01] C:\Users\utilizador\.gradle\caches\transforms-1\files-1.1\coordinatorlayout-1.0.0-rc01.aar\61852b6c2c685e85fca4ded2b328e79e\AndroidManifest.xml:20:5-44
MERGED from [androidx.coordinatorlayout:coordinatorlayout:1.0.0-rc01] C:\Users\utilizador\.gradle\caches\transforms-1\files-1.1\coordinatorlayout-1.0.0-rc01.aar\61852b6c2c685e85fca4ded2b328e79e\AndroidManifest.xml:20:5-44
MERGED from [androidx.drawerlayout:drawerlayout:1.0.0-rc01] C:\Users\utilizador\.gradle\caches\transforms-1\files-1.1\drawerlayout-1.0.0-rc01.aar\ac3bf7c11e91ddbefe3bc63b2eb34453\AndroidManifest.xml:20:5-44
MERGED from [androidx.drawerlayout:drawerlayout:1.0.0-rc01] C:\Users\utilizador\.gradle\caches\transforms-1\files-1.1\drawerlayout-1.0.0-rc01.aar\ac3bf7c11e91ddbefe3bc63b2eb34453\AndroidManifest.xml:20:5-44
MERGED from [androidx.slidingpanelayout:slidingpanelayout:1.0.0-rc01] C:\Users\utilizador\.gradle\caches\transforms-1\files-1.1\slidingpanelayout-1.0.0-rc01.aar\6ca47075c3e5664ef2e6ffc474f31064\AndroidManifest.xml:20:5-44
MERGED from [androidx.slidingpanelayout:slidingpanelayout:1.0.0-rc01] C:\Users\utilizador\.gradle\caches\transforms-1\files-1.1\slidingpanelayout-1.0.0-rc01.aar\6ca47075c3e5664ef2e6ffc474f31064\AndroidManifest.xml:20:5-44
MERGED from [androidx.customview:customview:1.0.0-rc01] C:\Users\utilizador\.gradle\caches\transforms-1\files-1.1\customview-1.0.0-rc01.aar\577a2c40503700adcf2afef0b05421e1\AndroidManifest.xml:20:5-44
MERGED from [androidx.customview:customview:1.0.0-rc01] C:\Users\utilizador\.gradle\caches\transforms-1\files-1.1\customview-1.0.0-rc01.aar\577a2c40503700adcf2afef0b05421e1\AndroidManifest.xml:20:5-44
MERGED from [androidx.swiperefreshlayout:swiperefreshlayout:1.0.0-rc01] C:\Users\utilizador\.gradle\caches\transforms-1\files-1.1\swiperefreshlayout-1.0.0-rc01.aar\2c51b01153c5f541fe66aad8d6accca8\AndroidManifest.xml:20:5-44
MERGED from [androidx.swiperefreshlayout:swiperefreshlayout:1.0.0-rc01] C:\Users\utilizador\.gradle\caches\transforms-1\files-1.1\swiperefreshlayout-1.0.0-rc01.aar\2c51b01153c5f541fe66aad8d6accca8\AndroidManifest.xml:20:5-44
MERGED from [androidx.asynclayoutinflater:asynclayoutinflater:1.0.0-rc01] C:\Users\utilizador\.gradle\caches\transforms-1\files-1.1\asynclayoutinflater-1.0.0-rc01.aar\efa9fd601668676502c1c18be72ea8e8\AndroidManifest.xml:20:5-44
MERGED from [androidx.asynclayoutinflater:asynclayoutinflater:1.0.0-rc01] C:\Users\utilizador\.gradle\caches\transforms-1\files-1.1\asynclayoutinflater-1.0.0-rc01.aar\efa9fd601668676502c1c18be72ea8e8\AndroidManifest.xml:20:5-44
MERGED from [androidx.core:core:1.0.0-rc01] C:\Users\utilizador\.gradle\caches\transforms-1\files-1.1\core-1.0.0-rc01.aar\8c35ea8a65f1f90dbe9dd427717afaf5\AndroidManifest.xml:20:5-44
MERGED from [androidx.core:core:1.0.0-rc01] C:\Users\utilizador\.gradle\caches\transforms-1\files-1.1\core-1.0.0-rc01.aar\8c35ea8a65f1f90dbe9dd427717afaf5\AndroidManifest.xml:20:5-44
MERGED from [androidx.versionedparcelable:versionedparcelable:1.0.0-rc01] C:\Users\utilizador\.gradle\caches\transforms-1\files-1.1\versionedparcelable-1.0.0-rc01.aar\5dbe26922b821e9670d97e34d8c5c5f8\AndroidManifest.xml:20:5-44
MERGED from [androidx.versionedparcelable:versionedparcelable:1.0.0-rc01] C:\Users\utilizador\.gradle\caches\transforms-1\files-1.1\versionedparcelable-1.0.0-rc01.aar\5dbe26922b821e9670d97e34d8c5c5f8\AndroidManifest.xml:20:5-44
MERGED from [androidx.documentfile:documentfile:1.0.0-rc01] C:\Users\utilizador\.gradle\caches\transforms-1\files-1.1\documentfile-1.0.0-rc01.aar\e6edc386819afadc062d1260149fca96\AndroidManifest.xml:20:5-44
MERGED from [androidx.documentfile:documentfile:1.0.0-rc01] C:\Users\utilizador\.gradle\caches\transforms-1\files-1.1\documentfile-1.0.0-rc01.aar\e6edc386819afadc062d1260149fca96\AndroidManifest.xml:20:5-44
MERGED from [androidx.localbroadcastmanager:localbroadcastmanager:1.0.0-rc01] C:\Users\utilizador\.gradle\caches\transforms-1\files-1.1\localbroadcastmanager-1.0.0-rc01.aar\58262651ea58f756262785450ed02e5a\AndroidManifest.xml:20:5-44
MERGED from [androidx.localbroadcastmanager:localbroadcastmanager:1.0.0-rc01] C:\Users\utilizador\.gradle\caches\transforms-1\files-1.1\localbroadcastmanager-1.0.0-rc01.aar\58262651ea58f756262785450ed02e5a\AndroidManifest.xml:20:5-44
MERGED from [androidx.print:print:1.0.0-rc01] C:\Users\utilizador\.gradle\caches\transforms-1\files-1.1\print-1.0.0-rc01.aar\10b9e51d4d304d8af315e1427b2f13fe\AndroidManifest.xml:20:5-44
MERGED from [androidx.print:print:1.0.0-rc01] C:\Users\utilizador\.gradle\caches\transforms-1\files-1.1\print-1.0.0-rc01.aar\10b9e51d4d304d8af315e1427b2f13fe\AndroidManifest.xml:20:5-44
MERGED from [androidx.interpolator:interpolator:1.0.0-rc01] C:\Users\utilizador\.gradle\caches\transforms-1\files-1.1\interpolator-1.0.0-rc01.aar\647d5e56a3d2ee459ab96f12af6a94ee\AndroidManifest.xml:20:5-44
MERGED from [androidx.interpolator:interpolator:1.0.0-rc01] C:\Users\utilizador\.gradle\caches\transforms-1\files-1.1\interpolator-1.0.0-rc01.aar\647d5e56a3d2ee459ab96f12af6a94ee\AndroidManifest.xml:20:5-44
MERGED from [androidx.cursoradapter:cursoradapter:1.0.0-rc01] C:\Users\utilizador\.gradle\caches\transforms-1\files-1.1\cursoradapter-1.0.0-rc01.aar\d709bbb8d0d722cc993ff69237680ba7\AndroidManifest.xml:20:5-44
MERGED from [androidx.cursoradapter:cursoradapter:1.0.0-rc01] C:\Users\utilizador\.gradle\caches\transforms-1\files-1.1\cursoradapter-1.0.0-rc01.aar\d709bbb8d0d722cc993ff69237680ba7\AndroidManifest.xml:20:5-44
MERGED from [com.google.firebase:firebase-database-collection:16.0.1] C:\Users\utilizador\.gradle\caches\transforms-1\files-1.1\firebase-database-collection-16.0.1.aar\928503d7232bd027bdb72e9f7d83378c\AndroidManifest.xml:5:5-44
MERGED from [com.google.firebase:firebase-database-collection:16.0.1] C:\Users\utilizador\.gradle\caches\transforms-1\files-1.1\firebase-database-collection-16.0.1.aar\928503d7232bd027bdb72e9f7d83378c\AndroidManifest.xml:5:5-44
MERGED from [com.google.firebase:protolite-well-known-types:16.0.1] C:\Users\utilizador\.gradle\caches\transforms-1\files-1.1\protolite-well-known-types-16.0.1.aar\7470d35735c11326faeafeee841816b3\AndroidManifest.xml:7:5-9:41
MERGED from [com.google.firebase:protolite-well-known-types:16.0.1] C:\Users\utilizador\.gradle\caches\transforms-1\files-1.1\protolite-well-known-types-16.0.1.aar\7470d35735c11326faeafeee841816b3\AndroidManifest.xml:7:5-9:41
MERGED from [androidx.lifecycle:lifecycle-runtime:2.0.0-rc01] C:\Users\utilizador\.gradle\caches\transforms-1\files-1.1\lifecycle-runtime-2.0.0-rc01.aar\5133b544a197fc9b1a92e9e5c1533cce\AndroidManifest.xml:20:5-44
MERGED from [androidx.lifecycle:lifecycle-runtime:2.0.0-rc01] C:\Users\utilizador\.gradle\caches\transforms-1\files-1.1\lifecycle-runtime-2.0.0-rc01.aar\5133b544a197fc9b1a92e9e5c1533cce\AndroidManifest.xml:20:5-44
MERGED from [androidx.lifecycle:lifecycle-viewmodel:2.0.0-rc01] C:\Users\utilizador\.gradle\caches\transforms-1\files-1.1\lifecycle-viewmodel-2.0.0-rc01.aar\88bd1e8449d728961d400ae08d977188\AndroidManifest.xml:20:5-44
MERGED from [androidx.lifecycle:lifecycle-viewmodel:2.0.0-rc01] C:\Users\utilizador\.gradle\caches\transforms-1\files-1.1\lifecycle-viewmodel-2.0.0-rc01.aar\88bd1e8449d728961d400ae08d977188\AndroidManifest.xml:20:5-44
MERGED from [androidx.lifecycle:lifecycle-livedata-core:2.0.0-rc01] C:\Users\utilizador\.gradle\caches\transforms-1\files-1.1\lifecycle-livedata-core-2.0.0-rc01.aar\fec700e26d0d0e4c8fc9332d80d9eaf5\AndroidManifest.xml:20:5-44
MERGED from [androidx.lifecycle:lifecycle-livedata-core:2.0.0-rc01] C:\Users\utilizador\.gradle\caches\transforms-1\files-1.1\lifecycle-livedata-core-2.0.0-rc01.aar\fec700e26d0d0e4c8fc9332d80d9eaf5\AndroidManifest.xml:20:5-44
MERGED from [androidx.arch.core:core-runtime:2.0.0-rc01] C:\Users\utilizador\.gradle\caches\transforms-1\files-1.1\core-runtime-2.0.0-rc01.aar\3058a10b3c061c074f07d4e948fef81a\AndroidManifest.xml:20:5-44
MERGED from [androidx.arch.core:core-runtime:2.0.0-rc01] C:\Users\utilizador\.gradle\caches\transforms-1\files-1.1\core-runtime-2.0.0-rc01.aar\3058a10b3c061c074f07d4e948fef81a\AndroidManifest.xml:20:5-44
INJECTED from C:\dev\ines\android\app\src\debug\AndroidManifest.xml
INJECTED from C:\dev\ines\android\app\src\debug\AndroidManifest.xml
	android:targetSdkVersion
		INJECTED from C:\dev\ines\android\app\src\main\AndroidManifest.xml
		INJECTED from C:\dev\ines\android\app\src\debug\AndroidManifest.xml
	android:minSdkVersion
		INJECTED from C:\dev\ines\android\app\src\main\AndroidManifest.xml
		INJECTED from C:\dev\ines\android\app\src\debug\AndroidManifest.xml
uses-permission#android.permission.INTERNET
ADDED from C:\dev\ines\android\app\src\debug\AndroidManifest.xml:6:5-66
MERGED from [com.google.firebase:firebase-storage:17.0.0] C:\Users\utilizador\.gradle\caches\transforms-1\files-1.1\jetified-firebase-storage-17.0.0.aar\9c9b1989685d4eb2a7369b32437b262a\AndroidManifest.xml:27:5-67
MERGED from [com.google.firebase:firebase-storage:17.0.0] C:\Users\utilizador\.gradle\caches\transforms-1\files-1.1\jetified-firebase-storage-17.0.0.aar\9c9b1989685d4eb2a7369b32437b262a\AndroidManifest.xml:27:5-67
MERGED from [com.google.firebase:firebase-firestore:19.0.0] C:\Users\utilizador\.gradle\caches\transforms-1\files-1.1\jetified-firebase-firestore-19.0.0.aar\75c955ba9084858e12822a0f374bdc5c\AndroidManifest.xml:14:5-67
MERGED from [com.google.firebase:firebase-firestore:19.0.0] C:\Users\utilizador\.gradle\caches\transforms-1\files-1.1\jetified-firebase-firestore-19.0.0.aar\75c955ba9084858e12822a0f374bdc5c\AndroidManifest.xml:14:5-67
MERGED from [com.google.android.gms:play-services-measurement-api:16.5.0] C:\Users\utilizador\.gradle\caches\transforms-1\files-1.1\jetified-play-services-measurement-api-16.5.0.aar\85a69f20b9c6a6513e8531692d89aba5\AndroidManifest.xml:22:5-67
MERGED from [com.google.android.gms:play-services-measurement-api:16.5.0] C:\Users\utilizador\.gradle\caches\transforms-1\files-1.1\jetified-play-services-measurement-api-16.5.0.aar\85a69f20b9c6a6513e8531692d89aba5\AndroidManifest.xml:22:5-67
MERGED from [com.google.firebase:firebase-iid:17.1.2] C:\Users\utilizador\.gradle\caches\transforms-1\files-1.1\jetified-firebase-iid-17.1.2.aar\c3462789492c9155fed319aa631485f7\AndroidManifest.xml:23:5-67
MERGED from [com.google.firebase:firebase-iid:17.1.2] C:\Users\utilizador\.gradle\caches\transforms-1\files-1.1\jetified-firebase-iid-17.1.2.aar\c3462789492c9155fed319aa631485f7\AndroidManifest.xml:23:5-67
MERGED from [com.google.android.gms:play-services-measurement:16.5.0] C:\Users\utilizador\.gradle\caches\transforms-1\files-1.1\jetified-play-services-measurement-16.5.0.aar\f2a6bf63b4f39fdf7a2659563135bca4\AndroidManifest.xml:23:5-67
MERGED from [com.google.android.gms:play-services-measurement:16.5.0] C:\Users\utilizador\.gradle\caches\transforms-1\files-1.1\jetified-play-services-measurement-16.5.0.aar\f2a6bf63b4f39fdf7a2659563135bca4\AndroidManifest.xml:23:5-67
MERGED from [com.google.android.gms:play-services-measurement-impl:16.5.0] C:\Users\utilizador\.gradle\caches\transforms-1\files-1.1\jetified-play-services-measurement-impl-16.5.0.aar\4a7ecc81bef8b124da8ab31d16ee7420\AndroidManifest.xml:23:5-67
MERGED from [com.google.android.gms:play-services-measurement-impl:16.5.0] C:\Users\utilizador\.gradle\caches\transforms-1\files-1.1\jetified-play-services-measurement-impl-16.5.0.aar\4a7ecc81bef8b124da8ab31d16ee7420\AndroidManifest.xml:23:5-67
MERGED from [com.google.android.gms:play-services-measurement-sdk-api:16.5.0] C:\Users\utilizador\.gradle\caches\transforms-1\files-1.1\jetified-play-services-measurement-sdk-api-16.5.0.aar\14eafd50251a47c2155d9e2374fef149\AndroidManifest.xml:23:5-67
MERGED from [com.google.android.gms:play-services-measurement-sdk-api:16.5.0] C:\Users\utilizador\.gradle\caches\transforms-1\files-1.1\jetified-play-services-measurement-sdk-api-16.5.0.aar\14eafd50251a47c2155d9e2374fef149\AndroidManifest.xml:23:5-67
	android:name
		ADDED from C:\dev\ines\android\app\src\debug\AndroidManifest.xml:6:22-64
service#com.google.firebase.components.ComponentDiscoveryService
ADDED from [:cloud_firestore] C:\dev\ines\build\cloud_firestore\intermediates\merged_manifests\debug\processDebugManifest\merged\AndroidManifest.xml:8:9-12:19
MERGED from [:firebase_core] C:\dev\ines\build\firebase_core\intermediates\merged_manifests\debug\processDebugManifest\merged\AndroidManifest.xml:8:9-12:19
MERGED from [:firebase_core] C:\dev\ines\build\firebase_core\intermediates\merged_manifests\debug\processDebugManifest\merged\AndroidManifest.xml:8:9-12:19
MERGED from [com.google.firebase:firebase-storage:17.0.0] C:\Users\utilizador\.gradle\caches\transforms-1\files-1.1\jetified-firebase-storage-17.0.0.aar\9c9b1989685d4eb2a7369b32437b262a\AndroidManifest.xml:30:9-34:19
MERGED from [com.google.firebase:firebase-storage:17.0.0] C:\Users\utilizador\.gradle\caches\transforms-1\files-1.1\jetified-firebase-storage-17.0.0.aar\9c9b1989685d4eb2a7369b32437b262a\AndroidManifest.xml:30:9-34:19
MERGED from [com.google.firebase:firebase-auth:17.0.0] C:\Users\utilizador\.gradle\caches\transforms-1\files-1.1\jetified-firebase-auth-17.0.0.aar\6edc349d68958325d8dbbba1ebedbefe\AndroidManifest.xml:33:9-39:19
MERGED from [com.google.firebase:firebase-auth:17.0.0] C:\Users\utilizador\.gradle\caches\transforms-1\files-1.1\jetified-firebase-auth-17.0.0.aar\6edc349d68958325d8dbbba1ebedbefe\AndroidManifest.xml:33:9-39:19
MERGED from [com.google.firebase:firebase-firestore:19.0.0] C:\Users\utilizador\.gradle\caches\transforms-1\files-1.1\jetified-firebase-firestore-19.0.0.aar\75c955ba9084858e12822a0f374bdc5c\AndroidManifest.xml:17:9-21:19
MERGED from [com.google.firebase:firebase-firestore:19.0.0] C:\Users\utilizador\.gradle\caches\transforms-1\files-1.1\jetified-firebase-firestore-19.0.0.aar\75c955ba9084858e12822a0f374bdc5c\AndroidManifest.xml:17:9-21:19
MERGED from [com.google.android.gms:play-services-measurement-api:16.5.0] C:\Users\utilizador\.gradle\caches\transforms-1\files-1.1\jetified-play-services-measurement-api-16.5.0.aar\85a69f20b9c6a6513e8531692d89aba5\AndroidManifest.xml:27:9-33:19
MERGED from [com.google.android.gms:play-services-measurement-api:16.5.0] C:\Users\utilizador\.gradle\caches\transforms-1\files-1.1\jetified-play-services-measurement-api-16.5.0.aar\85a69f20b9c6a6513e8531692d89aba5\AndroidManifest.xml:27:9-33:19
MERGED from [com.google.firebase:firebase-iid:17.1.2] C:\Users\utilizador\.gradle\caches\transforms-1\files-1.1\jetified-firebase-iid-17.1.2.aar\c3462789492c9155fed319aa631485f7\AndroidManifest.xml:29:9-35:19
MERGED from [com.google.firebase:firebase-iid:17.1.2] C:\Users\utilizador\.gradle\caches\transforms-1\files-1.1\jetified-firebase-iid-17.1.2.aar\c3462789492c9155fed319aa631485f7\AndroidManifest.xml:29:9-35:19
	android:exported
		ADDED from [com.google.firebase:firebase-auth:17.0.0] C:\Users\utilizador\.gradle\caches\transforms-1\files-1.1\jetified-firebase-auth-17.0.0.aar\6edc349d68958325d8dbbba1ebedbefe\AndroidManifest.xml:35:13-37
	android:name
		ADDED from [:cloud_firestore] C:\dev\ines\build\cloud_firestore\intermediates\merged_manifests\debug\processDebugManifest\merged\AndroidManifest.xml:8:18-89
meta-data#com.google.firebase.components:io.flutter.plugins.firebase.cloudfirestore.FlutterFirebaseAppRegistrar
ADDED from [:cloud_firestore] C:\dev\ines\build\cloud_firestore\intermediates\merged_manifests\debug\processDebugManifest\merged\AndroidManifest.xml:9:13-11:85
	android:value
		ADDED from [:cloud_firestore] C:\dev\ines\build\cloud_firestore\intermediates\merged_manifests\debug\processDebugManifest\merged\AndroidManifest.xml:11:17-82
	android:name
		ADDED from [:cloud_firestore] C:\dev\ines\build\cloud_firestore\intermediates\merged_manifests\debug\processDebugManifest\merged\AndroidManifest.xml:10:17-133
meta-data#com.google.firebase.components:io.flutter.plugins.firebase.core.FlutterFirebaseAppRegistrar
ADDED from [:firebase_core] C:\dev\ines\build\firebase_core\intermediates\merged_manifests\debug\processDebugManifest\merged\AndroidManifest.xml:9:13-11:85
	android:value
		ADDED from [:firebase_core] C:\dev\ines\build\firebase_core\intermediates\merged_manifests\debug\processDebugManifest\merged\AndroidManifest.xml:11:17-82
	android:name
		ADDED from [:firebase_core] C:\dev\ines\build\firebase_core\intermediates\merged_manifests\debug\processDebugManifest\merged\AndroidManifest.xml:10:17-123
uses-permission#android.permission.ACCESS_NETWORK_STATE
ADDED from [com.google.firebase:firebase-storage:17.0.0] C:\Users\utilizador\.gradle\caches\transforms-1\files-1.1\jetified-firebase-storage-17.0.0.aar\9c9b1989685d4eb2a7369b32437b262a\AndroidManifest.xml:26:5-79
MERGED from [com.google.firebase:firebase-firestore:19.0.0] C:\Users\utilizador\.gradle\caches\transforms-1\files-1.1\jetified-firebase-firestore-19.0.0.aar\75c955ba9084858e12822a0f374bdc5c\AndroidManifest.xml:13:5-79
MERGED from [com.google.firebase:firebase-firestore:19.0.0] C:\Users\utilizador\.gradle\caches\transforms-1\files-1.1\jetified-firebase-firestore-19.0.0.aar\75c955ba9084858e12822a0f374bdc5c\AndroidManifest.xml:13:5-79
MERGED from [io.grpc:grpc-android:1.16.1] C:\Users\utilizador\.gradle\caches\transforms-1\files-1.1\grpc-android-1.16.1.aar\835e94b60738999054ea0c734f9e5f8a\AndroidManifest.xml:11:5-79
MERGED from [io.grpc:grpc-android:1.16.1] C:\Users\utilizador\.gradle\caches\transforms-1\files-1.1\grpc-android-1.16.1.aar\835e94b60738999054ea0c734f9e5f8a\AndroidManifest.xml:11:5-79
MERGED from [com.google.android.gms:play-services-measurement-api:16.5.0] C:\Users\utilizador\.gradle\caches\transforms-1\files-1.1\jetified-play-services-measurement-api-16.5.0.aar\85a69f20b9c6a6513e8531692d89aba5\AndroidManifest.xml:23:5-79
MERGED from [com.google.android.gms:play-services-measurement-api:16.5.0] C:\Users\utilizador\.gradle\caches\transforms-1\files-1.1\jetified-play-services-measurement-api-16.5.0.aar\85a69f20b9c6a6513e8531692d89aba5\AndroidManifest.xml:23:5-79
MERGED from [com.google.firebase:firebase-iid:17.1.2] C:\Users\utilizador\.gradle\caches\transforms-1\files-1.1\jetified-firebase-iid-17.1.2.aar\c3462789492c9155fed319aa631485f7\AndroidManifest.xml:22:5-79
MERGED from [com.google.firebase:firebase-iid:17.1.2] C:\Users\utilizador\.gradle\caches\transforms-1\files-1.1\jetified-firebase-iid-17.1.2.aar\c3462789492c9155fed319aa631485f7\AndroidManifest.xml:22:5-79
MERGED from [com.google.android.gms:play-services-measurement:16.5.0] C:\Users\utilizador\.gradle\caches\transforms-1\files-1.1\jetified-play-services-measurement-16.5.0.aar\f2a6bf63b4f39fdf7a2659563135bca4\AndroidManifest.xml:24:5-79
MERGED from [com.google.android.gms:play-services-measurement:16.5.0] C:\Users\utilizador\.gradle\caches\transforms-1\files-1.1\jetified-play-services-measurement-16.5.0.aar\f2a6bf63b4f39fdf7a2659563135bca4\AndroidManifest.xml:24:5-79
MERGED from [com.google.android.gms:play-services-measurement-impl:16.5.0] C:\Users\utilizador\.gradle\caches\transforms-1\files-1.1\jetified-play-services-measurement-impl-16.5.0.aar\4a7ecc81bef8b124da8ab31d16ee7420\AndroidManifest.xml:24:5-79
MERGED from [com.google.android.gms:play-services-measurement-impl:16.5.0] C:\Users\utilizador\.gradle\caches\transforms-1\files-1.1\jetified-play-services-measurement-impl-16.5.0.aar\4a7ecc81bef8b124da8ab31d16ee7420\AndroidManifest.xml:24:5-79
MERGED from [com.google.android.gms:play-services-measurement-sdk-api:16.5.0] C:\Users\utilizador\.gradle\caches\transforms-1\files-1.1\jetified-play-services-measurement-sdk-api-16.5.0.aar\14eafd50251a47c2155d9e2374fef149\AndroidManifest.xml:24:5-79
MERGED from [com.google.android.gms:play-services-measurement-sdk-api:16.5.0] C:\Users\utilizador\.gradle\caches\transforms-1\files-1.1\jetified-play-services-measurement-sdk-api-16.5.0.aar\14eafd50251a47c2155d9e2374fef149\AndroidManifest.xml:24:5-79
	android:name
		ADDED from [com.google.firebase:firebase-storage:17.0.0] C:\Users\utilizador\.gradle\caches\transforms-1\files-1.1\jetified-firebase-storage-17.0.0.aar\9c9b1989685d4eb2a7369b32437b262a\AndroidManifest.xml:26:22-76
meta-data#com.google.firebase.components:com.google.firebase.storage.StorageRegistrar
ADDED from [com.google.firebase:firebase-storage:17.0.0] C:\Users\utilizador\.gradle\caches\transforms-1\files-1.1\jetified-firebase-storage-17.0.0.aar\9c9b1989685d4eb2a7369b32437b262a\AndroidManifest.xml:31:13-33:85
	android:value
		ADDED from [com.google.firebase:firebase-storage:17.0.0] C:\Users\utilizador\.gradle\caches\transforms-1\files-1.1\jetified-firebase-storage-17.0.0.aar\9c9b1989685d4eb2a7369b32437b262a\AndroidManifest.xml:33:17-82
	android:name
		ADDED from [com.google.firebase:firebase-storage:17.0.0] C:\Users\utilizador\.gradle\caches\transforms-1\files-1.1\jetified-firebase-storage-17.0.0.aar\9c9b1989685d4eb2a7369b32437b262a\AndroidManifest.xml:32:17-107
activity#com.google.firebase.auth.internal.FederatedSignInActivity
ADDED from [com.google.firebase:firebase-auth:17.0.0] C:\Users\utilizador\.gradle\caches\transforms-1\files-1.1\jetified-firebase-auth-17.0.0.aar\6edc349d68958325d8dbbba1ebedbefe\AndroidManifest.xml:24:9-31:50
	android:excludeFromRecents
		ADDED from [com.google.firebase:firebase-auth:17.0.0] C:\Users\utilizador\.gradle\caches\transforms-1\files-1.1\jetified-firebase-auth-17.0.0.aar\6edc349d68958325d8dbbba1ebedbefe\AndroidManifest.xml:26:13-46
	android:launchMode
		ADDED from [com.google.firebase:firebase-auth:17.0.0] C:\Users\utilizador\.gradle\caches\transforms-1\files-1.1\jetified-firebase-auth-17.0.0.aar\6edc349d68958325d8dbbba1ebedbefe\AndroidManifest.xml:28:13-44
	android:exported
		ADDED from [com.google.firebase:firebase-auth:17.0.0] C:\Users\utilizador\.gradle\caches\transforms-1\files-1.1\jetified-firebase-auth-17.0.0.aar\6edc349d68958325d8dbbba1ebedbefe\AndroidManifest.xml:27:13-36
	android:permission
		ADDED from [com.google.firebase:firebase-auth:17.0.0] C:\Users\utilizador\.gradle\caches\transforms-1\files-1.1\jetified-firebase-auth-17.0.0.aar\6edc349d68958325d8dbbba1ebedbefe\AndroidManifest.xml:29:13-102
	android:theme
		ADDED from [com.google.firebase:firebase-auth:17.0.0] C:\Users\utilizador\.gradle\caches\transforms-1\files-1.1\jetified-firebase-auth-17.0.0.aar\6edc349d68958325d8dbbba1ebedbefe\AndroidManifest.xml:30:13-72
	tools:replace
		ADDED from [com.google.firebase:firebase-auth:17.0.0] C:\Users\utilizador\.gradle\caches\transforms-1\files-1.1\jetified-firebase-auth-17.0.0.aar\6edc349d68958325d8dbbba1ebedbefe\AndroidManifest.xml:31:13-47
	android:name
		ADDED from [com.google.firebase:firebase-auth:17.0.0] C:\Users\utilizador\.gradle\caches\transforms-1\files-1.1\jetified-firebase-auth-17.0.0.aar\6edc349d68958325d8dbbba1ebedbefe\AndroidManifest.xml:25:13-85
meta-data#com.google.firebase.components:com.google.firebase.auth.FirebaseAuthRegistrar
ADDED from [com.google.firebase:firebase-auth:17.0.0] C:\Users\utilizador\.gradle\caches\transforms-1\files-1.1\jetified-firebase-auth-17.0.0.aar\6edc349d68958325d8dbbba1ebedbefe\AndroidManifest.xml:36:13-38:85
	android:value
		ADDED from [com.google.firebase:firebase-auth:17.0.0] C:\Users\utilizador\.gradle\caches\transforms-1\files-1.1\jetified-firebase-auth-17.0.0.aar\6edc349d68958325d8dbbba1ebedbefe\AndroidManifest.xml:38:17-82
	android:name
		ADDED from [com.google.firebase:firebase-auth:17.0.0] C:\Users\utilizador\.gradle\caches\transforms-1\files-1.1\jetified-firebase-auth-17.0.0.aar\6edc349d68958325d8dbbba1ebedbefe\AndroidManifest.xml:37:17-109
meta-data#com.google.firebase.components:com.google.firebase.firestore.FirestoreRegistrar
ADDED from [com.google.firebase:firebase-firestore:19.0.0] C:\Users\utilizador\.gradle\caches\transforms-1\files-1.1\jetified-firebase-firestore-19.0.0.aar\75c955ba9084858e12822a0f374bdc5c\AndroidManifest.xml:18:13-20:85
	android:value
		ADDED from [com.google.firebase:firebase-firestore:19.0.0] C:\Users\utilizador\.gradle\caches\transforms-1\files-1.1\jetified-firebase-firestore-19.0.0.aar\75c955ba9084858e12822a0f374bdc5c\AndroidManifest.xml:20:17-82
	android:name
		ADDED from [com.google.firebase:firebase-firestore:19.0.0] C:\Users\utilizador\.gradle\caches\transforms-1\files-1.1\jetified-firebase-firestore-19.0.0.aar\75c955ba9084858e12822a0f374bdc5c\AndroidManifest.xml:19:17-111
uses-permission#android.permission.WAKE_LOCK
ADDED from [com.google.android.gms:play-services-measurement-api:16.5.0] C:\Users\utilizador\.gradle\caches\transforms-1\files-1.1\jetified-play-services-measurement-api-16.5.0.aar\85a69f20b9c6a6513e8531692d89aba5\AndroidManifest.xml:24:5-68
MERGED from [com.google.firebase:firebase-iid:17.1.2] C:\Users\utilizador\.gradle\caches\transforms-1\files-1.1\jetified-firebase-iid-17.1.2.aar\c3462789492c9155fed319aa631485f7\AndroidManifest.xml:24:5-68
MERGED from [com.google.firebase:firebase-iid:17.1.2] C:\Users\utilizador\.gradle\caches\transforms-1\files-1.1\jetified-firebase-iid-17.1.2.aar\c3462789492c9155fed319aa631485f7\AndroidManifest.xml:24:5-68
MERGED from [com.google.android.gms:play-services-measurement:16.5.0] C:\Users\utilizador\.gradle\caches\transforms-1\files-1.1\jetified-play-services-measurement-16.5.0.aar\f2a6bf63b4f39fdf7a2659563135bca4\AndroidManifest.xml:25:5-68
MERGED from [com.google.android.gms:play-services-measurement:16.5.0] C:\Users\utilizador\.gradle\caches\transforms-1\files-1.1\jetified-play-services-measurement-16.5.0.aar\f2a6bf63b4f39fdf7a2659563135bca4\AndroidManifest.xml:25:5-68
MERGED from [com.google.android.gms:play-services-measurement-impl:16.5.0] C:\Users\utilizador\.gradle\caches\transforms-1\files-1.1\jetified-play-services-measurement-impl-16.5.0.aar\4a7ecc81bef8b124da8ab31d16ee7420\AndroidManifest.xml:25:5-68
MERGED from [com.google.android.gms:play-services-measurement-impl:16.5.0] C:\Users\utilizador\.gradle\caches\transforms-1\files-1.1\jetified-play-services-measurement-impl-16.5.0.aar\4a7ecc81bef8b124da8ab31d16ee7420\AndroidManifest.xml:25:5-68
MERGED from [com.google.android.gms:play-services-measurement-sdk-api:16.5.0] C:\Users\utilizador\.gradle\caches\transforms-1\files-1.1\jetified-play-services-measurement-sdk-api-16.5.0.aar\14eafd50251a47c2155d9e2374fef149\AndroidManifest.xml:25:5-68
MERGED from [com.google.android.gms:play-services-measurement-sdk-api:16.5.0] C:\Users\utilizador\.gradle\caches\transforms-1\files-1.1\jetified-play-services-measurement-sdk-api-16.5.0.aar\14eafd50251a47c2155d9e2374fef149\AndroidManifest.xml:25:5-68
	android:name
		ADDED from [com.google.android.gms:play-services-measurement-api:16.5.0] C:\Users\utilizador\.gradle\caches\transforms-1\files-1.1\jetified-play-services-measurement-api-16.5.0.aar\85a69f20b9c6a6513e8531692d89aba5\AndroidManifest.xml:24:22-65
meta-data#com.google.firebase.components:com.google.firebase.analytics.connector.internal.AnalyticsConnectorRegistrar
ADDED from [com.google.android.gms:play-services-measurement-api:16.5.0] C:\Users\utilizador\.gradle\caches\transforms-1\files-1.1\jetified-play-services-measurement-api-16.5.0.aar\85a69f20b9c6a6513e8531692d89aba5\AndroidManifest.xml:30:13-32:85
	android:value
		ADDED from [com.google.android.gms:play-services-measurement-api:16.5.0] C:\Users\utilizador\.gradle\caches\transforms-1\files-1.1\jetified-play-services-measurement-api-16.5.0.aar\85a69f20b9c6a6513e8531692d89aba5\AndroidManifest.xml:32:17-82
	android:name
		ADDED from [com.google.android.gms:play-services-measurement-api:16.5.0] C:\Users\utilizador\.gradle\caches\transforms-1\files-1.1\jetified-play-services-measurement-api-16.5.0.aar\85a69f20b9c6a6513e8531692d89aba5\AndroidManifest.xml:31:17-139
uses-permission#com.google.android.c2dm.permission.RECEIVE
ADDED from [com.google.firebase:firebase-iid:17.1.2] C:\Users\utilizador\.gradle\caches\transforms-1\files-1.1\jetified-firebase-iid-17.1.2.aar\c3462789492c9155fed319aa631485f7\AndroidManifest.xml:26:5-82
	android:name
		ADDED from [com.google.firebase:firebase-iid:17.1.2] C:\Users\utilizador\.gradle\caches\transforms-1\files-1.1\jetified-firebase-iid-17.1.2.aar\c3462789492c9155fed319aa631485f7\AndroidManifest.xml:26:22-79
meta-data#com.google.firebase.components:com.google.firebase.iid.Registrar
ADDED from [com.google.firebase:firebase-iid:17.1.2] C:\Users\utilizador\.gradle\caches\transforms-1\files-1.1\jetified-firebase-iid-17.1.2.aar\c3462789492c9155fed319aa631485f7\AndroidManifest.xml:32:13-34:85
	android:value
		ADDED from [com.google.firebase:firebase-iid:17.1.2] C:\Users\utilizador\.gradle\caches\transforms-1\files-1.1\jetified-firebase-iid-17.1.2.aar\c3462789492c9155fed319aa631485f7\AndroidManifest.xml:34:17-82
	android:name
		ADDED from [com.google.firebase:firebase-iid:17.1.2] C:\Users\utilizador\.gradle\caches\transforms-1\files-1.1\jetified-firebase-iid-17.1.2.aar\c3462789492c9155fed319aa631485f7\AndroidManifest.xml:33:17-96
receiver#com.google.firebase.iid.FirebaseInstanceIdReceiver
ADDED from [com.google.firebase:firebase-iid:17.1.2] C:\Users\utilizador\.gradle\caches\transforms-1\files-1.1\jetified-firebase-iid-17.1.2.aar\c3462789492c9155fed319aa631485f7\AndroidManifest.xml:37:9-44:20
	android:exported
		ADDED from [com.google.firebase:firebase-iid:17.1.2] C:\Users\utilizador\.gradle\caches\transforms-1\files-1.1\jetified-firebase-iid-17.1.2.aar\c3462789492c9155fed319aa631485f7\AndroidManifest.xml:39:13-36
	android:permission
		ADDED from [com.google.firebase:firebase-iid:17.1.2] C:\Users\utilizador\.gradle\caches\transforms-1\files-1.1\jetified-firebase-iid-17.1.2.aar\c3462789492c9155fed319aa631485f7\AndroidManifest.xml:40:13-73
	android:name
		ADDED from [com.google.firebase:firebase-iid:17.1.2] C:\Users\utilizador\.gradle\caches\transforms-1\files-1.1\jetified-firebase-iid-17.1.2.aar\c3462789492c9155fed319aa631485f7\AndroidManifest.xml:38:13-78
intent-filter#action:name:com.google.android.c2dm.intent.RECEIVE
ADDED from [com.google.firebase:firebase-iid:17.1.2] C:\Users\utilizador\.gradle\caches\transforms-1\files-1.1\jetified-firebase-iid-17.1.2.aar\c3462789492c9155fed319aa631485f7\AndroidManifest.xml:41:13-43:29
action#com.google.android.c2dm.intent.RECEIVE
ADDED from [com.google.firebase:firebase-iid:17.1.2] C:\Users\utilizador\.gradle\caches\transforms-1\files-1.1\jetified-firebase-iid-17.1.2.aar\c3462789492c9155fed319aa631485f7\AndroidManifest.xml:42:17-81
	android:name
		ADDED from [com.google.firebase:firebase-iid:17.1.2] C:\Users\utilizador\.gradle\caches\transforms-1\files-1.1\jetified-firebase-iid-17.1.2.aar\c3462789492c9155fed319aa631485f7\AndroidManifest.xml:42:25-78
service#com.google.firebase.iid.FirebaseInstanceIdService
ADDED from [com.google.firebase:firebase-iid:17.1.2] C:\Users\utilizador\.gradle\caches\transforms-1\files-1.1\jetified-firebase-iid-17.1.2.aar\c3462789492c9155fed319aa631485f7\AndroidManifest.xml:50:9-56:19
	android:exported
		ADDED from [com.google.firebase:firebase-iid:17.1.2] C:\Users\utilizador\.gradle\caches\transforms-1\files-1.1\jetified-firebase-iid-17.1.2.aar\c3462789492c9155fed319aa631485f7\AndroidManifest.xml:52:13-36
	android:name
		ADDED from [com.google.firebase:firebase-iid:17.1.2] C:\Users\utilizador\.gradle\caches\transforms-1\files-1.1\jetified-firebase-iid-17.1.2.aar\c3462789492c9155fed319aa631485f7\AndroidManifest.xml:51:13-77
intent-filter#action:name:com.google.firebase.INSTANCE_ID_EVENT
ADDED from [com.google.firebase:firebase-iid:17.1.2] C:\Users\utilizador\.gradle\caches\transforms-1\files-1.1\jetified-firebase-iid-17.1.2.aar\c3462789492c9155fed319aa631485f7\AndroidManifest.xml:53:13-55:29
	android:priority
		ADDED from [com.google.firebase:firebase-iid:17.1.2] C:\Users\utilizador\.gradle\caches\transforms-1\files-1.1\jetified-firebase-iid-17.1.2.aar\c3462789492c9155fed319aa631485f7\AndroidManifest.xml:53:28-51
action#com.google.firebase.INSTANCE_ID_EVENT
ADDED from [com.google.firebase:firebase-iid:17.1.2] C:\Users\utilizador\.gradle\caches\transforms-1\files-1.1\jetified-firebase-iid-17.1.2.aar\c3462789492c9155fed319aa631485f7\AndroidManifest.xml:54:17-80
	android:name
		ADDED from [com.google.firebase:firebase-iid:17.1.2] C:\Users\utilizador\.gradle\caches\transforms-1\files-1.1\jetified-firebase-iid-17.1.2.aar\c3462789492c9155fed319aa631485f7\AndroidManifest.xml:54:25-77
provider#com.google.firebase.provider.FirebaseInitProvider
ADDED from [com.google.firebase:firebase-common:17.0.0] C:\Users\utilizador\.gradle\caches\transforms-1\files-1.1\jetified-firebase-common-17.0.0.aar\b7aad917b1ae87686ada99b298976fe1\AndroidManifest.xml:12:9-16:39
	android:authorities
		ADDED from [com.google.firebase:firebase-common:17.0.0] C:\Users\utilizador\.gradle\caches\transforms-1\files-1.1\jetified-firebase-common-17.0.0.aar\b7aad917b1ae87686ada99b298976fe1\AndroidManifest.xml:14:13-72
	android:exported
		ADDED from [com.google.firebase:firebase-common:17.0.0] C:\Users\utilizador\.gradle\caches\transforms-1\files-1.1\jetified-firebase-common-17.0.0.aar\b7aad917b1ae87686ada99b298976fe1\AndroidManifest.xml:15:13-37
	android:initOrder
		ADDED from [com.google.firebase:firebase-common:17.0.0] C:\Users\utilizador\.gradle\caches\transforms-1\files-1.1\jetified-firebase-common-17.0.0.aar\b7aad917b1ae87686ada99b298976fe1\AndroidManifest.xml:16:13-36
	android:name
		ADDED from [com.google.firebase:firebase-common:17.0.0] C:\Users\utilizador\.gradle\caches\transforms-1\files-1.1\jetified-firebase-common-17.0.0.aar\b7aad917b1ae87686ada99b298976fe1\AndroidManifest.xml:13:13-77
activity#com.google.android.gms.common.api.GoogleApiActivity
ADDED from [com.google.android.gms:play-services-base:16.0.1] C:\Users\utilizador\.gradle\caches\transforms-1\files-1.1\jetified-play-services-base-16.0.1.aar\2bc13842ce595460e38ae80dd36a273c\AndroidManifest.xml:23:9-26:75
	android:exported
		ADDED from [com.google.android.gms:play-services-base:16.0.1] C:\Users\utilizador\.gradle\caches\transforms-1\files-1.1\jetified-play-services-base-16.0.1.aar\2bc13842ce595460e38ae80dd36a273c\AndroidManifest.xml:25:13-37
	android:theme
		ADDED from [com.google.android.gms:play-services-base:16.0.1] C:\Users\utilizador\.gradle\caches\transforms-1\files-1.1\jetified-play-services-base-16.0.1.aar\2bc13842ce595460e38ae80dd36a273c\AndroidManifest.xml:26:13-72
	android:name
		ADDED from [com.google.android.gms:play-services-base:16.0.1] C:\Users\utilizador\.gradle\caches\transforms-1\files-1.1\jetified-play-services-base-16.0.1.aar\2bc13842ce595460e38ae80dd36a273c\AndroidManifest.xml:24:13-79
uses-permission#com.google.android.finsky.permission.BIND_GET_INSTALL_REFERRER_SERVICE
ADDED from [com.google.android.gms:play-services-measurement:16.5.0] C:\Users\utilizador\.gradle\caches\transforms-1\files-1.1\jetified-play-services-measurement-16.5.0.aar\f2a6bf63b4f39fdf7a2659563135bca4\AndroidManifest.xml:26:5-110
MERGED from [com.google.android.gms:play-services-measurement-impl:16.5.0] C:\Users\utilizador\.gradle\caches\transforms-1\files-1.1\jetified-play-services-measurement-impl-16.5.0.aar\4a7ecc81bef8b124da8ab31d16ee7420\AndroidManifest.xml:26:5-110
MERGED from [com.google.android.gms:play-services-measurement-impl:16.5.0] C:\Users\utilizador\.gradle\caches\transforms-1\files-1.1\jetified-play-services-measurement-impl-16.5.0.aar\4a7ecc81bef8b124da8ab31d16ee7420\AndroidManifest.xml:26:5-110
MERGED from [com.google.android.gms:play-services-measurement-sdk-api:16.5.0] C:\Users\utilizador\.gradle\caches\transforms-1\files-1.1\jetified-play-services-measurement-sdk-api-16.5.0.aar\14eafd50251a47c2155d9e2374fef149\AndroidManifest.xml:26:5-110
MERGED from [com.google.android.gms:play-services-measurement-sdk-api:16.5.0] C:\Users\utilizador\.gradle\caches\transforms-1\files-1.1\jetified-play-services-measurement-sdk-api-16.5.0.aar\14eafd50251a47c2155d9e2374fef149\AndroidManifest.xml:26:5-110
	android:name
		ADDED from [com.google.android.gms:play-services-measurement:16.5.0] C:\Users\utilizador\.gradle\caches\transforms-1\files-1.1\jetified-play-services-measurement-16.5.0.aar\f2a6bf63b4f39fdf7a2659563135bca4\AndroidManifest.xml:26:22-107
receiver#com.google.android.gms.measurement.AppMeasurementReceiver
ADDED from [com.google.android.gms:play-services-measurement:16.5.0] C:\Users\utilizador\.gradle\caches\transforms-1\files-1.1\jetified-play-services-measurement-16.5.0.aar\f2a6bf63b4f39fdf7a2659563135bca4\AndroidManifest.xml:29:9-33:20
	android:enabled
		ADDED from [com.google.android.gms:play-services-measurement:16.5.0] C:\Users\utilizador\.gradle\caches\transforms-1\files-1.1\jetified-play-services-measurement-16.5.0.aar\f2a6bf63b4f39fdf7a2659563135bca4\AndroidManifest.xml:31:13-35
	android:exported
		ADDED from [com.google.android.gms:play-services-measurement:16.5.0] C:\Users\utilizador\.gradle\caches\transforms-1\files-1.1\jetified-play-services-measurement-16.5.0.aar\f2a6bf63b4f39fdf7a2659563135bca4\AndroidManifest.xml:32:13-37
	android:name
		ADDED from [com.google.android.gms:play-services-measurement:16.5.0] C:\Users\utilizador\.gradle\caches\transforms-1\files-1.1\jetified-play-services-measurement-16.5.0.aar\f2a6bf63b4f39fdf7a2659563135bca4\AndroidManifest.xml:30:13-85
receiver#com.google.android.gms.measurement.AppMeasurementInstallReferrerReceiver
ADDED from [com.google.android.gms:play-services-measurement:16.5.0] C:\Users\utilizador\.gradle\caches\transforms-1\files-1.1\jetified-play-services-measurement-16.5.0.aar\f2a6bf63b4f39fdf7a2659563135bca4\AndroidManifest.xml:34:9-42:20
MERGED from [com.google.android.gms:play-services-measurement-impl:16.5.0] C:\Users\utilizador\.gradle\caches\transforms-1\files-1.1\jetified-play-services-measurement-impl-16.5.0.aar\4a7ecc81bef8b124da8ab31d16ee7420\AndroidManifest.xml:29:9-37:20
MERGED from [com.google.android.gms:play-services-measurement-impl:16.5.0] C:\Users\utilizador\.gradle\caches\transforms-1\files-1.1\jetified-play-services-measurement-impl-16.5.0.aar\4a7ecc81bef8b124da8ab31d16ee7420\AndroidManifest.xml:29:9-37:20
MERGED from [com.google.android.gms:play-services-measurement-sdk-api:16.5.0] C:\Users\utilizador\.gradle\caches\transforms-1\files-1.1\jetified-play-services-measurement-sdk-api-16.5.0.aar\14eafd50251a47c2155d9e2374fef149\AndroidManifest.xml:29:9-37:20
MERGED from [com.google.android.gms:play-services-measurement-sdk-api:16.5.0] C:\Users\utilizador\.gradle\caches\transforms-1\files-1.1\jetified-play-services-measurement-sdk-api-16.5.0.aar\14eafd50251a47c2155d9e2374fef149\AndroidManifest.xml:29:9-37:20
	android:enabled
		ADDED from [com.google.android.gms:play-services-measurement:16.5.0] C:\Users\utilizador\.gradle\caches\transforms-1\files-1.1\jetified-play-services-measurement-16.5.0.aar\f2a6bf63b4f39fdf7a2659563135bca4\AndroidManifest.xml:36:13-35
	android:exported
		ADDED from [com.google.android.gms:play-services-measurement:16.5.0] C:\Users\utilizador\.gradle\caches\transforms-1\files-1.1\jetified-play-services-measurement-16.5.0.aar\f2a6bf63b4f39fdf7a2659563135bca4\AndroidManifest.xml:37:13-36
	android:permission
		ADDED from [com.google.android.gms:play-services-measurement:16.5.0] C:\Users\utilizador\.gradle\caches\transforms-1\files-1.1\jetified-play-services-measurement-16.5.0.aar\f2a6bf63b4f39fdf7a2659563135bca4\AndroidManifest.xml:38:13-69
	android:name
		ADDED from [com.google.android.gms:play-services-measurement:16.5.0] C:\Users\utilizador\.gradle\caches\transforms-1\files-1.1\jetified-play-services-measurement-16.5.0.aar\f2a6bf63b4f39fdf7a2659563135bca4\AndroidManifest.xml:35:13-100
intent-filter#action:name:com.android.vending.INSTALL_REFERRER
ADDED from [com.google.android.gms:play-services-measurement:16.5.0] C:\Users\utilizador\.gradle\caches\transforms-1\files-1.1\jetified-play-services-measurement-16.5.0.aar\f2a6bf63b4f39fdf7a2659563135bca4\AndroidManifest.xml:39:13-41:29
action#com.android.vending.INSTALL_REFERRER
ADDED from [com.google.android.gms:play-services-measurement:16.5.0] C:\Users\utilizador\.gradle\caches\transforms-1\files-1.1\jetified-play-services-measurement-16.5.0.aar\f2a6bf63b4f39fdf7a2659563135bca4\AndroidManifest.xml:40:17-79
	android:name
		ADDED from [com.google.android.gms:play-services-measurement:16.5.0] C:\Users\utilizador\.gradle\caches\transforms-1\files-1.1\jetified-play-services-measurement-16.5.0.aar\f2a6bf63b4f39fdf7a2659563135bca4\AndroidManifest.xml:40:25-76
service#com.google.android.gms.measurement.AppMeasurementService
ADDED from [com.google.android.gms:play-services-measurement:16.5.0] C:\Users\utilizador\.gradle\caches\transforms-1\files-1.1\jetified-play-services-measurement-16.5.0.aar\f2a6bf63b4f39fdf7a2659563135bca4\AndroidManifest.xml:44:9-47:40
	android:enabled
		ADDED from [com.google.android.gms:play-services-measurement:16.5.0] C:\Users\utilizador\.gradle\caches\transforms-1\files-1.1\jetified-play-services-measurement-16.5.0.aar\f2a6bf63b4f39fdf7a2659563135bca4\AndroidManifest.xml:46:13-35
	android:exported
		ADDED from [com.google.android.gms:play-services-measurement:16.5.0] C:\Users\utilizador\.gradle\caches\transforms-1\files-1.1\jetified-play-services-measurement-16.5.0.aar\f2a6bf63b4f39fdf7a2659563135bca4\AndroidManifest.xml:47:13-37
	android:name
		ADDED from [com.google.android.gms:play-services-measurement:16.5.0] C:\Users\utilizador\.gradle\caches\transforms-1\files-1.1\jetified-play-services-measurement-16.5.0.aar\f2a6bf63b4f39fdf7a2659563135bca4\AndroidManifest.xml:45:13-84
service#com.google.android.gms.measurement.AppMeasurementJobService
ADDED from [com.google.android.gms:play-services-measurement:16.5.0] C:\Users\utilizador\.gradle\caches\transforms-1\files-1.1\jetified-play-services-measurement-16.5.0.aar\f2a6bf63b4f39fdf7a2659563135bca4\AndroidManifest.xml:48:9-52:72
	android:enabled
		ADDED from [com.google.android.gms:play-services-measurement:16.5.0] C:\Users\utilizador\.gradle\caches\transforms-1\files-1.1\jetified-play-services-measurement-16.5.0.aar\f2a6bf63b4f39fdf7a2659563135bca4\AndroidManifest.xml:50:13-35
	android:exported
		ADDED from [com.google.android.gms:play-services-measurement:16.5.0] C:\Users\utilizador\.gradle\caches\transforms-1\files-1.1\jetified-play-services-measurement-16.5.0.aar\f2a6bf63b4f39fdf7a2659563135bca4\AndroidManifest.xml:51:13-37
	android:permission
		ADDED from [com.google.android.gms:play-services-measurement:16.5.0] C:\Users\utilizador\.gradle\caches\transforms-1\files-1.1\jetified-play-services-measurement-16.5.0.aar\f2a6bf63b4f39fdf7a2659563135bca4\AndroidManifest.xml:52:13-69
	android:name
		ADDED from [com.google.android.gms:play-services-measurement:16.5.0] C:\Users\utilizador\.gradle\caches\transforms-1\files-1.1\jetified-play-services-measurement-16.5.0.aar\f2a6bf63b4f39fdf7a2659563135bca4\AndroidManifest.xml:49:13-87
meta-data#com.google.android.gms.version
ADDED from [com.google.android.gms:play-services-basement:16.2.0] C:\Users\utilizador\.gradle\caches\transforms-1\files-1.1\jetified-play-services-basement-16.2.0.aar\7441ade9eb49c9bce3c7047f58a435ef\AndroidManifest.xml:23:9-25:69
	android:value
		ADDED from [com.google.android.gms:play-services-basement:16.2.0] C:\Users\utilizador\.gradle\caches\transforms-1\files-1.1\jetified-play-services-basement-16.2.0.aar\7441ade9eb49c9bce3c7047f58a435ef\AndroidManifest.xml:25:13-66
	android:name
		ADDED from [com.google.android.gms:play-services-basement:16.2.0] C:\Users\utilizador\.gradle\caches\transforms-1\files-1.1\jetified-play-services-basement-16.2.0.aar\7441ade9eb49c9bce3c7047f58a435ef\AndroidManifest.xml:24:13-58
