{
  "project_info": {
    "project_number": "755942967792",
    "firebase_url": "https://myyda-f00ec.firebaseio.com",
    "project_id": "myyda-f00ec",
    "storage_bucket": "myyda-f00ec.appspot.com"
  },
  "client": [{
    "client_info": {
      "mobilesdk_app_id": "1:755942967792:android:2bfff8111c1a2de0",
      "android_client_info": {
        "package_name": "com.example.myyda"
      }
    },
    "oauth_client": [{
      "client_id": "755942967792-mfi3binbp22vridsncs466krk1ln4l4d.apps.googleusercontent.com",
      "client_type": 3
    }],
    "api_key": [{
      "current_key": "AIzaSyDGyDfcN-woALBImnh8nIEZ57Q86v48mFw"
    }],
    "services": {
      "appinvite_service": {
        "other_platform_oauth_client": [{
          "client_id": "755942967792-mfi3binbp22vridsncs466krk1ln4l4d.apps.googleusercontent.com",
          "client_type": 3
        }]
      }
    }
  }],
  "configuration_version": "1"
}